<?xml version="1.0" encoding="UTF-8"?>
<!-- Generator: Adobe Illustrator 16.0.0, SVG Export Plug-In . SVG Version: 6.00 Build 0)  -->
<svg width="64" height="117.34" version="1.1" viewBox="0 0 792 1452.0456" xml:space="preserve" xmlns="http://www.w3.org/2000/svg" xmlns:cc="http://creativecommons.org/ns#" xmlns:dc="http://purl.org/dc/elements/1.1/" xmlns:rdf="http://www.w3.org/1999/02/22-rdf-syntax-ns#"><metadata><rdf:RDF><cc:Work rdf:about=""><dc:format>image/svg+xml</dc:format><dc:type rdf:resource="http://purl.org/dc/dcmitype/StillImage"/><dc:title/></cc:Work></rdf:RDF></metadata>
<g transform="matrix(1.8334 0 0 1.8334 -330.02 0)">
		<path d="m378.01 792c21.024 0 198-99.468 198-122.87 0-23.399-137.74-497.56-137.74-497.56l106.67-140.4s24.876-31.176-24.876-31.176h-281.99c-49.788 0-33.192 31.176-33.192 31.176l112.86 140.4s-137.74 471.38-137.74 497.56 176.98 122.87 198 122.87z"/>
		<path d="m568.59 504 37.692-54.252c7.092-10.224 7.668-27.252 1.224-37.944l-139.5-231.8z"/>
</g>
</svg>
