<?xml version="1.0" encoding="UTF-8" standalone="no"?>
<!-- Generator: Adobe Illustrator 19.0.0, SVG Export Plug-In . SVG Version: 6.00 Build 0)  -->

<svg
   xmlns:dc="http://purl.org/dc/elements/1.1/"
   xmlns:cc="http://creativecommons.org/ns#"
   xmlns:rdf="http://www.w3.org/1999/02/22-rdf-syntax-ns#"
   xmlns:svg="http://www.w3.org/2000/svg"
   xmlns="http://www.w3.org/2000/svg"
   xmlns:sodipodi="http://sodipodi.sourceforge.net/DTD/sodipodi-0.dtd"
   xmlns:inkscape="http://www.inkscape.org/namespaces/inkscape"
   width="32.481"
   height="32.358"
   version="1.1"
   viewBox="0 0 32.480717 32.357628"
   xml:space="preserve"
   id="svg16"
   sodipodi:docname="dislike.svg"
   inkscape:version="0.92.2 5c3e80d, 2017-08-06"><defs
     id="defs20" /><sodipodi:namedview
     pagecolor="#ffffff"
     bordercolor="#666666"
     borderopacity="1"
     objecttolerance="10"
     gridtolerance="10"
     guidetolerance="10"
     inkscape:pageopacity="0"
     inkscape:pageshadow="2"
     inkscape:window-width="1198"
     inkscape:window-height="652"
     id="namedview18"
     showgrid="false"
     inkscape:zoom="7.2934046"
     inkscape:cx="16.240499"
     inkscape:cy="16.179001"
     inkscape:window-x="0"
     inkscape:window-y="0"
     inkscape:window-maximized="0"
     inkscape:current-layer="svg16" /><metadata
     id="metadata2"><rdf:RDF><cc:Work
         rdf:about=""><dc:format>image/svg+xml</dc:format><dc:type
           rdf:resource="http://purl.org/dc/dcmitype/StillImage" /><dc:title /></cc:Work></rdf:RDF></metadata><g
     transform="matrix(.0625 0 0 -.064842 .24544 32.777)"
     fill="#f68b1f"
     stroke="#fff9ff"
     stroke-width="20"
     id="g8"><g
       fill="#f68b1f"
       stroke="#fff9ff"
       stroke-width="20"
       id="g6"><path
         d="m83.578 167.26h-66.862c-9.192 0-16.716 7.486-16.716 16.715v300.88c0 9.225 7.491 16.713 16.716 16.713h66.862c9.225 0 16.716-7.489 16.716-16.713v-300.88c0-9.229-7.525-16.715-16.716-16.715z"
         fill="#f68b1f"
         stroke="#fff9ff"
         stroke-width="20"
         id="path4" /></g></g><g
     transform="matrix(.0625 0 0 -.064842 .24544 32.777)"
     fill="#006fba"
     stroke="#fff"
     stroke-opacity=".98095"
     stroke-width="20"
     id="g14"
     style="fill:#f68b1f;fill-opacity:1"><g
       fill="#006fba"
       stroke="#fff"
       stroke-opacity=".98095"
       stroke-width="20"
       id="g12"
       style="fill:#f68b1f;fill-opacity:1"><path
         d="m470.27 167.26c-2.692-0.456-128.74 0-128.74 0l17.606-48.032c12.148-33.174 4.283-83.827-29.424-101.84-10.975-5.864-26.309-8.809-38.672-5.697-7.09 1.784-13.321 6.478-17.035 12.767-4.271 7.233-3.83 15.676-5.351 23.696-3.857 20.342-13.469 39.683-28.354 54.2-25.952 25.311-106.57 98.331-106.57 98.331v267.45h278.59c37.592 0.022 62.228-41.958 43.687-74.749 22.101-14.155 29.66-43.97 16.716-66.862 22.102-14.155 29.66-43.97 16.716-66.862 38.134-24.423 25.385-84.871-19.172-92.407z"
         fill="#006fba"
         stroke="#fff"
         stroke-opacity=".98095"
         stroke-width="20"
         id="path10"
         style="fill:#f68b1f;fill-opacity:1" /></g></g></svg>