<?xml version="1.0" encoding="UTF-8" ?>
<!DOCTYPE svg PUBLIC "-//W3C//DTD SVG 1.1//EN" "http://www.w3.org/Graphics/SVG/1.1/DTD/svg11.dtd">
<svg width="1819pt" height="600pt" viewBox="0 0 1819 600" version="1.1" xmlns="http://www.w3.org/2000/svg">
<g id="#b0aea4ff">
<path fill="#b0aea4" opacity="1.00" d=" M 705.82 11.10 C 707.70 10.12 709.89 10.25 711.96 10.17 C 844.34 10.20 976.72 10.14 1109.10 10.20 C 1121.63 11.50 1133.35 22.93 1132.75 36.00 C 1132.75 166.33 1132.74 296.66 1132.75 426.99 C 1133.55 439.11 1123.80 450.49 1112.01 452.52 C 1104.35 453.03 1096.66 452.64 1089.00 452.76 C 965.66 452.77 842.33 452.76 718.99 452.77 C 715.01 452.73 711.00 452.92 707.04 452.42 C 696.02 449.98 686.64 439.56 687.15 428.00 C 687.15 296.99 687.14 165.99 687.15 34.99 C 686.84 23.82 695.81 14.65 705.82 11.10 M 710.23 23.83 C 704.76 25.12 699.85 30.09 700.23 35.95 C 700.26 166.65 700.24 297.34 700.24 428.04 C 700.13 434.50 706.54 440.38 713.00 439.73 C 844.34 439.72 975.68 439.72 1107.01 439.72 C 1113.80 440.29 1120.24 433.78 1119.66 427.02 C 1119.62 296.67 1119.65 166.32 1119.64 35.97 C 1119.95 28.83 1112.90 23.12 1106.05 23.51 C 986.03 23.54 866.02 23.52 746.00 23.53 C 734.08 23.74 722.10 23.11 710.23 23.83 Z" />
<path fill="#b0aea4" opacity="1.00" d=" M 859.43 77.42 C 875.07 53.14 907.57 40.48 935.21 49.95 C 952.82 55.57 966.42 70.30 972.91 87.34 C 967.82 89.46 962.91 92.13 958.64 95.62 C 954.54 84.72 947.35 74.60 937.00 68.90 C 926.04 62.58 912.39 61.63 900.46 65.60 C 886.36 70.01 874.28 80.74 868.80 94.53 C 865.58 101.89 864.90 110.03 865.28 117.98 C 865.32 122.96 866.70 127.85 868.74 132.37 C 870.26 135.85 872.59 139.05 873.01 142.93 C 874.02 150.29 873.62 157.77 873.43 165.17 C 872.93 164.84 871.94 164.18 871.44 163.85 C 859.11 151.66 849.69 135.61 848.50 118.02 C 847.82 103.80 851.69 89.39 859.43 77.42 Z" />
<path fill="#b0aea4" opacity="1.00" d=" M 796.24 86.37 C 803.63 82.80 811.71 80.12 820.02 80.30 C 825.60 80.33 831.30 79.98 836.75 81.45 C 841.26 82.42 845.57 84.07 849.94 85.52 C 848.82 90.92 846.92 96.13 845.93 101.56 C 839.49 99.27 832.98 96.65 826.03 96.53 C 813.67 95.75 801.13 100.64 792.48 109.48 C 778.95 122.84 774.38 144.23 781.04 161.99 C 786.32 175.86 797.49 187.92 812.01 192.07 C 817.59 193.31 821.86 197.32 826.02 200.98 C 829.32 204.28 832.94 207.37 835.46 211.35 C 822.19 211.69 808.71 209.23 796.75 203.36 C 778.57 194.21 765.96 175.63 762.56 155.74 C 757.71 128.65 771.67 99.09 796.24 86.37 Z" />
<path fill="#b0aea4" opacity="1.00" d=" M 988.35 87.10 C 1002.01 85.04 1016.36 86.90 1028.82 93.02 C 1042.98 99.73 1054.83 111.67 1060.55 126.36 C 1062.39 131.38 1064.03 136.60 1063.82 142.02 C 1063.73 149.15 1064.50 156.50 1062.34 163.42 C 1061.30 166.95 1060.46 170.61 1058.62 173.83 C 1053.25 173.25 1048.34 170.52 1042.91 170.14 C 1044.94 163.21 1048.07 156.39 1047.68 148.99 C 1048.39 137.13 1043.25 125.38 1035.00 117.01 C 1026.45 108.66 1014.87 103.55 1003.00 102.52 C 980.73 100.73 957.45 115.42 951.36 137.28 C 950.29 141.91 946.85 145.38 943.94 148.94 C 940.27 152.81 936.59 156.70 932.37 159.98 C 931.81 141.56 936.60 122.17 949.17 108.21 C 959.48 97.20 973.41 89.52 988.35 87.10 Z" />
<path fill="#b0aea4" opacity="1.00" d=" M 872.00 128.02 C 867.39 119.05 868.39 108.44 870.88 98.99 C 880.80 107.09 887.00 118.98 890.49 131.14 C 893.98 144.34 894.46 158.25 892.48 171.73 C 890.20 191.69 883.12 210.66 875.54 229.13 C 875.10 228.90 874.21 228.45 873.77 228.23 C 870.87 222.72 867.96 217.19 864.41 212.06 C 870.46 198.07 874.40 183.14 876.37 168.04 C 877.08 154.64 877.82 140.50 872.00 128.02 Z" />
<path fill="#b0aea4" opacity="1.00" d=" M 957.95 132.91 C 961.25 123.19 969.32 115.50 978.47 111.19 C 978.97 125.48 974.35 139.66 966.53 151.53 C 955.08 169.01 937.86 181.73 919.84 191.79 C 909.56 197.27 899.09 202.67 887.90 206.03 C 889.44 199.61 891.95 193.43 892.85 186.86 C 911.30 178.46 929.58 168.52 943.69 153.69 C 949.65 147.71 954.75 140.76 957.95 132.91 Z" />
<path fill="#b0aea4" opacity="1.00" d=" M 896.60 163.83 C 901.94 167.23 907.54 170.25 913.67 171.98 C 911.66 174.38 908.72 175.59 906.04 177.04 C 902.20 178.96 898.49 181.39 894.17 182.05 C 895.02 175.98 896.16 169.94 896.60 163.83 Z" />
<path fill="#b0aea4" opacity="1.00" d=" M 786.32 165.49 C 804.88 164.23 822.95 172.26 836.89 184.11 C 858.51 202.79 872.43 228.61 882.74 254.87 C 877.70 253.58 872.76 251.87 867.67 250.81 C 865.63 250.23 862.84 250.20 861.98 247.87 C 856.60 236.14 850.29 224.79 842.58 214.43 C 833.66 202.43 822.55 191.37 808.54 185.59 C 798.70 182.44 791.07 174.42 786.32 165.49 Z" />
<path fill="#b0aea4" opacity="1.00" d=" M 738.56 186.59 C 745.34 179.78 753.63 174.54 762.58 171.06 C 764.99 175.98 767.66 180.79 770.90 185.22 C 757.84 190.08 745.94 199.65 741.20 213.11 C 732.91 235.01 744.46 261.28 764.80 272.02 C 776.81 278.40 791.55 280.57 804.53 275.90 C 808.24 274.75 811.58 272.70 815.15 271.21 C 823.52 268.64 832.39 269.56 841.02 269.63 C 840.16 272.62 837.24 274.11 835.14 276.13 C 822.68 286.91 806.81 294.98 790.00 294.57 C 778.02 294.81 766.08 291.41 755.69 285.53 C 734.94 273.71 721.11 250.01 722.27 226.01 C 722.11 211.39 728.46 197.05 738.56 186.59 Z" />
<path fill="#b0aea4" opacity="1.00" d=" M 980.17 195.11 C 992.59 183.17 1008.44 173.82 1025.95 172.62 C 1041.59 171.89 1057.60 176.33 1070.23 185.69 C 1087.71 198.51 1098.76 220.20 1097.59 241.99 C 1097.36 260.82 1086.75 278.87 1071.02 289.05 C 1066.52 291.74 1062.01 294.85 1056.79 295.92 C 1055.02 290.74 1051.57 286.45 1048.97 281.71 C 1063.16 277.17 1075.45 265.81 1079.55 251.28 C 1085.77 230.58 1075.10 207.01 1056.77 196.21 C 1045.61 189.46 1031.88 187.62 1019.20 190.14 C 1011.98 191.49 1006.17 196.85 998.75 197.39 C 992.07 197.84 985.36 197.71 978.67 197.49 C 979.10 196.65 979.60 195.86 980.17 195.11 Z" />
<path fill="#b0aea4" opacity="1.00" d=" M 936.33 185.40 C 941.13 182.09 945.54 178.22 950.34 174.90 C 951.08 181.26 953.71 187.09 956.19 192.91 C 950.40 192.28 944.98 190.03 939.45 188.37 C 938.14 187.76 935.25 187.50 936.33 185.40 Z" />
<path fill="#b0aea4" opacity="1.00" d=" M 850.70 193.72 C 857.07 192.36 863.24 190.31 869.09 187.40 C 867.91 194.57 865.45 201.48 862.74 208.20 C 858.10 203.96 855.17 198.17 850.70 193.72 Z" />
<path fill="#b0aea4" opacity="1.00" d=" M 913.90 198.44 C 920.19 195.66 925.78 191.52 932.00 188.67 C 946.69 194.64 962.17 198.80 977.95 200.52 C 988.23 200.77 998.75 201.52 1008.74 198.51 C 1014.68 197.36 1019.76 193.10 1025.98 193.29 C 1032.25 193.20 1038.66 192.81 1044.74 194.69 C 1044.69 195.14 1044.58 196.04 1044.53 196.49 C 1032.43 207.89 1016.60 215.29 999.98 216.65 C 990.99 216.92 981.97 216.98 972.98 216.50 C 956.01 214.29 939.46 209.45 923.60 203.10 C 920.34 201.61 916.69 200.80 913.90 198.44 Z" />
<path fill="#b0aea4" opacity="1.00" d=" M 937.44 211.84 C 944.07 213.70 950.97 214.93 957.33 217.55 C 961.93 227.10 966.53 236.70 972.45 245.53 C 981.33 258.94 992.22 271.70 1006.65 279.32 C 1011.20 281.88 1016.64 282.85 1020.58 286.46 C 1025.46 290.79 1030.29 295.51 1033.01 301.56 C 1018.81 302.45 1004.76 297.69 992.84 290.20 C 980.66 282.37 970.58 271.63 962.22 259.89 C 951.86 245.07 943.71 228.78 937.44 211.84 Z" />
<path fill="#b0aea4" opacity="1.00" d=" M 961.22 218.32 C 967.49 218.44 973.63 220.24 979.97 219.78 C 977.63 225.68 973.11 230.65 972.27 237.18 C 971.25 236.74 970.16 236.34 969.76 235.21 C 966.65 229.72 963.70 224.13 961.22 218.32 Z" />
<path fill="#b0aea4" opacity="1.00" d=" M 847.55 230.27 C 848.01 230.30 848.93 230.37 849.39 230.40 C 852.09 236.68 856.35 242.25 858.21 248.90 C 851.86 248.67 845.67 246.95 839.29 247.28 C 842.73 241.98 846.23 236.56 847.55 230.27 Z" />
<path fill="#b0aea4" opacity="1.00" d=" M 944.41 237.80 C 945.29 238.45 946.28 239.07 946.68 240.17 C 948.93 244.83 951.67 249.21 954.32 253.64 C 955.37 255.00 954.56 256.67 954.11 258.09 C 949.01 270.90 945.53 284.35 943.57 297.99 C 943.06 311.52 941.78 325.76 947.49 338.47 C 952.33 347.46 951.07 358.19 949.26 367.84 C 946.22 367.33 944.68 364.36 942.76 362.30 C 931.16 348.37 926.00 329.92 926.31 312.00 C 925.95 286.17 934.58 261.33 944.41 237.80 Z" />
<path fill="#b0aea4" opacity="1.00" d=" M 810.79 252.03 C 821.32 249.38 832.27 250.33 843.02 250.42 C 860.28 252.02 877.13 256.78 893.28 263.00 C 897.48 264.84 902.04 266.06 905.75 268.87 C 899.61 271.67 894.08 275.63 888.03 278.55 C 872.61 272.57 856.50 268.11 840.01 266.53 C 828.82 266.02 817.34 266.10 806.72 270.09 C 802.81 271.33 799.27 273.98 795.02 273.78 C 788.27 273.77 781.35 274.46 774.79 272.51 C 775.18 271.68 775.65 270.90 776.21 270.17 C 785.67 260.96 797.89 254.75 810.79 252.03 Z" />
<path fill="#b0aea4" opacity="1.00" d=" M 984.59 256.28 C 997.60 255.54 1010.79 257.98 1022.55 263.64 C 1041.44 272.95 1054.37 292.37 1057.51 312.99 C 1057.95 321.90 1058.46 331.08 1055.80 339.73 C 1050.15 362.43 1031.29 381.81 1008.07 386.28 C 995.05 387.59 981.33 387.28 969.41 381.26 C 971.47 376.34 973.01 371.19 973.65 365.88 C 980.38 367.67 986.88 370.87 994.02 370.60 C 1005.23 371.43 1016.52 367.33 1024.97 360.00 C 1034.72 351.48 1040.83 338.88 1041.66 326.00 C 1043.29 306.62 1032.19 286.75 1014.84 277.99 C 1009.98 275.31 1004.04 274.97 999.71 271.31 C 994.20 266.83 988.64 262.18 984.59 256.28 Z" />
<path fill="#b0aea4" opacity="1.00" d=" M 957.01 259.32 C 959.64 260.93 961.08 263.72 962.95 266.08 C 964.86 268.70 967.11 271.06 969.01 273.70 C 962.46 274.63 956.45 277.34 950.42 279.87 C 952.18 272.89 954.15 265.94 957.01 259.32 Z" />
<path fill="#b0aea4" opacity="1.00" d=" M 902.91 273.84 C 912.29 269.01 921.84 264.27 931.93 261.11 C 929.59 267.47 927.70 273.99 926.36 280.64 C 911.16 287.58 896.16 295.45 883.45 306.44 C 875.47 313.16 868.36 321.15 863.61 330.49 C 861.38 334.69 860.37 339.55 857.20 343.21 C 852.96 348.49 847.76 353.28 841.47 355.98 C 840.65 339.89 846.79 324.04 856.33 311.29 C 868.39 295.11 885.32 283.32 902.91 273.84 Z" />
<path fill="#b0aea4" opacity="1.00" d=" M 863.54 274.30 C 870.65 275.29 877.37 278.06 884.16 280.32 C 882.90 283.27 879.63 284.35 877.34 286.30 C 874.47 288.14 872.40 291.36 868.86 291.96 C 869.16 285.60 865.78 280.02 863.54 274.30 Z" />
<path fill="#b0aea4" opacity="1.00" d=" M 760.83 293.17 C 766.28 294.26 771.50 296.29 776.98 297.31 C 775.15 303.10 772.34 308.75 772.31 314.95 C 772.16 321.01 771.83 327.29 774.16 333.03 C 777.95 344.54 786.82 354.01 797.62 359.32 C 810.43 365.86 826.12 366.61 839.43 361.14 C 851.05 356.22 861.38 347.37 866.43 335.62 C 868.38 331.44 868.84 326.53 871.96 322.94 C 876.53 317.22 881.48 311.53 887.59 307.44 C 887.77 312.66 886.46 317.78 886.51 323.01 C 884.83 336.56 879.20 349.77 869.88 359.83 C 857.15 372.73 839.35 381.39 820.99 380.72 C 796.20 381.59 771.32 366.91 760.71 344.36 C 754.14 330.60 753.80 314.28 758.67 299.94 C 759.38 297.68 760.16 295.44 760.83 293.17 Z" />
<path fill="#b0aea4" opacity="1.00" d=" M 946.52 301.90 C 951.30 305.64 954.95 310.58 958.54 315.42 C 968.10 328.71 973.58 345.65 970.60 362.03 C 968.98 375.35 963.06 388.11 954.02 398.01 C 942.96 410.18 927.43 418.29 911.05 420.05 C 894.42 421.99 876.86 416.91 864.41 405.58 C 856.71 398.56 850.32 389.71 847.10 379.76 C 851.21 378.26 854.98 376.02 858.58 373.57 C 859.56 372.82 860.76 372.51 861.97 372.29 C 865.05 383.23 872.87 392.71 882.71 398.34 C 894.46 405.09 909.22 405.50 921.77 400.79 C 935.76 395.66 947.42 384.14 952.00 369.88 C 956.02 357.95 956.07 344.18 950.09 332.87 C 948.44 329.81 946.77 326.61 946.57 323.06 C 946.14 316.02 946.13 308.95 946.52 301.90 Z" />
</g>
<g id="#b0aea4fe">
<path fill="#b0aea4" opacity="1.00" d=" M 907.52 293.59 C 913.46 290.52 919.15 286.52 925.77 285.04 C 924.85 291.09 923.45 297.11 923.38 303.26 C 918.07 300.48 912.95 297.28 907.13 295.64 C 905.76 295.49 906.53 293.72 907.52 293.59 Z" />
</g>
<g id="#2c4373ff">
<path fill="#2c4373" opacity="1.00" d=" M 665.61 501.54 C 674.78 495.36 686.32 494.99 697.00 495.29 C 707.38 494.71 717.80 494.47 728.19 494.95 C 725.69 500.80 723.52 506.99 719.91 512.23 C 708.97 512.58 698.01 511.93 687.07 512.44 C 681.82 513.29 676.53 515.87 673.24 520.15 C 669.99 524.27 671.59 529.80 671.31 534.61 C 682.80 534.63 694.31 534.32 705.80 534.78 C 705.67 540.08 705.70 545.40 705.77 550.71 C 694.29 550.81 682.78 550.29 671.32 550.99 C 671.44 562.66 671.32 574.34 671.42 586.02 C 671.10 587.37 672.07 590.12 670.02 590.32 C 664.05 590.65 658.06 590.36 652.08 590.38 C 652.01 569.24 652.03 548.10 652.07 526.96 C 651.89 516.90 657.18 507.02 665.61 501.54 Z" />
<path fill="#2c4373" opacity="1.00" d=" M 738.89 499.15 C 741.43 494.17 748.99 493.28 752.89 497.13 C 755.47 499.69 756.52 503.41 756.45 506.97 C 756.43 532.99 756.42 559.01 756.46 585.03 C 756.44 586.87 756.32 588.72 756.14 590.57 C 749.84 590.35 743.53 590.40 737.23 590.53 C 737.55 580.67 736.51 570.85 736.75 561.00 C 736.76 544.66 736.72 528.32 736.76 511.98 C 737.11 507.68 736.90 503.09 738.89 499.15 Z" />
<path fill="#2c4373" opacity="1.00" d=" M 783.14 497.34 C 787.60 494.69 793.07 494.93 798.05 495.48 C 805.93 497.15 810.95 504.82 812.57 512.27 C 814.37 520.58 817.42 528.55 819.29 536.84 C 821.81 547.19 825.38 557.27 827.57 567.71 C 827.96 567.58 828.73 567.32 829.12 567.19 C 832.93 548.78 839.04 530.94 843.49 512.69 C 845.20 505.19 849.98 497.33 858.00 495.58 C 862.21 494.97 866.70 494.78 870.80 496.12 C 877.55 498.64 881.79 505.90 881.67 512.96 C 881.71 538.82 881.65 564.67 881.70 590.52 C 875.11 590.39 868.53 590.38 861.95 590.53 C 861.33 565.75 861.76 540.93 861.74 516.14 C 861.21 516.25 860.14 516.46 859.60 516.57 C 855.19 533.10 849.78 549.35 845.50 565.92 C 842.94 574.06 840.70 582.30 838.11 590.44 C 831.76 590.27 825.39 590.74 819.06 590.25 C 817.82 589.39 817.69 587.77 817.20 586.49 C 812.91 570.94 807.95 555.58 803.82 539.99 C 801.15 532.38 799.76 524.35 796.85 516.86 C 796.14 516.04 795.42 515.25 794.70 514.47 C 792.90 518.06 793.26 522.12 793.32 526.01 C 793.50 547.53 793.17 569.06 793.49 590.59 C 787.66 590.15 781.81 590.72 775.99 590.33 C 774.07 589.86 774.86 587.41 774.63 586.02 C 774.72 561.67 774.62 537.33 774.68 512.99 C 774.60 506.77 777.87 500.65 783.14 497.34 Z" />
<path fill="#2c4373" opacity="1.00" d=" M 1017.35 498.52 C 1024.58 495.83 1032.34 495.20 1040.00 495.50 C 1049.48 495.58 1058.98 495.37 1068.47 495.61 C 1066.47 500.35 1063.83 504.77 1061.49 509.33 C 1060.70 510.65 1059.93 512.60 1058.03 512.32 C 1048.44 512.58 1038.81 511.95 1029.24 512.62 C 1019.18 514.24 1013.90 525.20 1014.83 534.58 C 1025.44 534.62 1036.07 534.19 1046.67 534.80 C 1046.41 540.41 1046.53 546.02 1046.60 551.63 C 1036.08 551.74 1025.56 551.41 1015.05 551.81 C 1015.14 556.55 1015.68 561.51 1018.58 565.44 C 1022.43 570.97 1029.36 573.63 1035.94 573.56 C 1046.56 573.70 1057.20 573.30 1067.83 573.76 C 1067.63 579.25 1067.66 584.76 1067.82 590.26 C 1057.21 590.67 1046.60 590.31 1036.00 590.45 C 1026.44 590.92 1016.47 589.08 1008.55 583.47 C 999.86 577.49 995.29 567.35 993.06 557.35 C 991.09 546.54 990.79 535.19 993.85 524.56 C 997.31 512.98 1005.74 502.55 1017.35 498.52 Z" />
<path fill="#2c4373" opacity="1.00" d=" M 908.07 500.14 C 912.56 497.51 917.79 496.14 923.00 496.18 C 933.00 496.10 942.99 496.12 952.99 496.19 C 959.54 495.96 966.10 497.83 971.57 501.44 C 979.88 506.89 983.21 517.45 982.84 526.99 C 983.41 535.02 981.10 543.48 975.18 549.17 C 969.21 555.36 960.24 556.94 952.02 557.36 C 940.81 557.37 929.60 557.33 918.39 557.37 C 918.41 568.37 918.45 579.37 918.37 590.37 C 911.67 590.39 904.95 590.64 898.26 590.22 C 898.58 565.80 898.26 541.37 898.42 516.95 C 898.40 510.13 902.58 503.91 908.07 500.14 M 918.47 522.95 C 918.30 528.76 918.42 534.57 918.49 540.38 C 928.67 540.37 938.87 540.57 949.05 540.29 C 954.32 540.22 960.03 537.41 961.29 531.90 C 962.05 525.98 962.74 518.62 957.63 514.35 C 954.31 511.05 949.33 511.25 945.01 511.27 C 939.69 511.38 934.37 511.07 929.07 511.37 C 923.25 511.69 918.60 517.29 918.47 522.95 Z" />
<path fill="#2c4373" opacity="1.00" d=" M 1081.78 508.61 C 1087.10 499.70 1098.09 496.05 1108.01 496.17 C 1126.09 496.15 1144.17 496.06 1162.25 496.21 C 1160.57 501.90 1157.86 507.20 1155.16 512.45 C 1142.09 512.50 1129.02 512.24 1115.95 512.40 C 1111.64 512.38 1107.07 512.94 1103.47 515.49 C 1099.12 519.13 1099.68 526.60 1103.85 530.18 C 1106.95 532.72 1111.15 533.26 1115.03 533.50 C 1127.20 533.96 1139.71 532.33 1151.49 536.26 C 1157.99 537.96 1163.25 542.96 1165.92 549.05 C 1168.76 554.25 1167.82 560.35 1167.97 566.03 C 1168.37 575.90 1160.66 584.39 1151.84 587.78 C 1142.05 591.87 1131.29 590.15 1121.00 590.43 C 1108.40 590.31 1095.79 590.68 1083.21 590.24 C 1083.39 584.62 1083.31 579.00 1083.27 573.38 C 1098.51 573.46 1113.76 573.43 1129.00 573.40 C 1133.33 573.09 1137.98 572.98 1141.85 570.79 C 1146.90 567.92 1147.25 560.42 1143.89 556.14 C 1141.39 552.69 1137.01 551.53 1133.06 550.69 C 1121.39 549.44 1109.48 551.66 1097.92 549.15 C 1090.48 547.62 1083.54 542.69 1080.70 535.50 C 1077.51 526.89 1077.64 516.88 1081.78 508.61 Z" />
</g>
<g id="#111a2c64">
<path fill="#111a2c" opacity="0.39" d=" M 793.32 526.01 C 793.26 522.12 792.90 518.06 794.70 514.47 C 795.42 515.25 796.14 516.04 796.85 516.86 C 796.28 517.12 795.16 517.65 794.59 517.91 C 794.54 539.27 794.55 560.64 794.60 582.00 C 794.44 584.86 795.38 588.11 793.49 590.59 C 793.17 569.06 793.50 547.53 793.32 526.01 Z" />
</g>
</svg>
