{
  "name": "unitec-app-v6",
  "version": "0.0.0",
  "license": "MIT",
  "scripts": {
    "ng": "ng",
    "start": "ng serve",
    "build": "ng build",
    "test": "ng test",
    "lint": "ng lint",
    "e2e": "ng e2e"
  },
  "private": true,
  "dependencies": {
    "@agm/core": "^1.0.0-beta.1",
    "@angular/common": "^4.4.4",
    "@angular/compiler": "^4.4.4",
    "@angular/core": "^4.4.4",
    "@angular/forms": "^4.4.4",
    "@angular/http": "^4.4.4",
    "@angular/platform-browser": "^4.4.4",
    "@angular/platform-browser-dynamic": "^4.4.4",
    "@angular/router": "^4.4.4",
    "@ngui/auto-complete": "^0.13.8",
    "angular-svg-round-progressbar": "^1.1.0",
    "angular2-mentions": "^0.5.2",
    "core-js": "^2.5.1",
    "ng2-auto-complete": "^0.12.0",
    "ng2-completer": "^1.6.3",
    "ng2-input-autocomplete": "0.0.11",
    "ng2-typewriter": "^1.1.0",
    "ngx-cookie-service": "^1.0.9",
    "rxjs": "^5.4.3",
    "zone.js": "0.8.5"
  },
  "devDependencies": {
    "@angular/cli": "^1.3.1",
    "@angular/compiler-cli": "^4.4.4",
    "@types/jasmine": "2.5.38",
    "@types/node": "^6.0.88",
    "codelyzer": "~2.0.0",
    "jasmine-core": "~2.5.2",
    "jasmine-spec-reporter": "~3.2.0",
    "karma": "~1.4.1",
    "karma-chrome-launcher": "~2.0.0",
    "karma-cli": "~1.0.1",
    "karma-coverage-istanbul-reporter": "^0.2.0",
    "karma-jasmine": "~1.1.0",
    "karma-jasmine-html-reporter": "^0.2.2",
    "protractor": "~5.1.0",
    "ts-node": "~2.0.0",
    "tslint": "~4.5.0",
    "typescript": "~2.2.0"
  }
}
