<?xml version="1.0" encoding="UTF-8"?>
<!-- Generator: Adobe Illustrator 19.1.0, SVG Export Plug-In . SVG Version: 6.00 Build 0)  -->
<svg width="32" height="32" version="1.1" viewBox="0 0 32 32.000001" xml:space="preserve" xmlns="http://www.w3.org/2000/svg" xmlns:cc="http://creativecommons.org/ns#" xmlns:dc="http://purl.org/dc/elements/1.1/" xmlns:rdf="http://www.w3.org/1999/02/22-rdf-syntax-ns#"><metadata><rdf:RDF><cc:Work rdf:about=""><dc:format>image/svg+xml</dc:format><dc:type rdf:resource="http://purl.org/dc/dcmitype/StillImage"/><dc:title/></cc:Work></rdf:RDF></metadata>
<path d="m31.959 16.205c-0.02293-0.65284-0.50934-1.1858-1.1545-1.2691l-0.50928-0.06632-6.573-4.8438c-1.2784-0.94353-2.8933-1.2523-4.4301-0.83972-0.55078 0.14642-0.87928 0.7139-0.73182 1.2648 0.14759 0.55182 0.72026 0.87909 1.2648 0.7315 0.92488-0.24619 1.8997-0.06444 2.672 0.50616l3.9456 2.9076c-0.81159 0.01461-1.6241 0.06873-2.4358 0.18104-1.2367 0.17039-2.4763 0.43217-3.6424 0.76996l-0.62471 0.12271c-2.4189 0.47595-4.9133 0.48206-7.3563 0.0176l-0.70493-0.13076c-1.2076-0.34733-2.4482-0.60912-3.6858-0.7795-0.81166-0.11231-1.6245-0.16649-2.4361-0.18104l3.946-2.9076c0.77203-0.56949 1.7468-0.75118 2.6719-0.50616 0.54747 0.14882 1.1168-0.17877 1.2646-0.7315 0.14752-0.55085-0.18058-1.1184-0.73163-1.2648-1.5359-0.41346-3.1508-0.10387-4.4301 0.83972l-6.5743 4.8448-0.50609 0.06541c-0.64731 0.08328-1.1328 0.6175-1.1546 1.2691l-0.041636 1.1525c-0.017601 0.55384 0.30758 1.0588 0.75989 1.2312 0.19325 0.10101 0.31804 0.27029 0.33038 0.45322l0.14759 2.1742c0.25983 2.6239 2.4389 4.6525 5.0692 4.72l2.4225 0.0634c1.8081 0 3.4636-0.92164 4.4384-2.4816l1.9547-3.4326c0.12992-0.19416 0.48836-0.26393 0.81159-0.26393 0.0031 0 0.14447-0.0021 0.14447-0.0021 0.30992 0 0.67557 0.08315 0.7795 0.23593l1.9838 3.4813c0.96438 1.5414 2.6199 2.463 4.428 2.463l2.4214-0.0634c2.6302-0.06743 4.8097-2.0962 5.0715-4.7356l0.14642-2.1585c0.01241-0.18286 0.13635-0.35221 0.27744-0.43029 0.50408-0.19533 0.8305-0.70026 0.81166-1.2553zm-6.1969 0.70656c0.36773 0 0.69012 0.01858 0.96028 0.05508 0.87285 0.11744 1.7707 0.6933 1.8103 1.7147l0.08821 2.2248c0.03008 0.75989-0.23983 1.4862-0.75742 2.0476-0.51779 0.5589-1.22 0.88428-1.9786 0.91352 0 0-1.9009 0.07269-2.0067 0.07464-3.4641 0-4.445-3.4544-4.4843-3.5947-0.16233-0.64647-0.04683-1.3374 0.31804-1.8965 0.36572-0.56137 0.95165-0.94684 1.6086-1.059 1.8976-0.3233 3.3506-0.48017 4.4417-0.48017zm-17.634 7.0303c-0.11225-0.001975-2.0119-0.074638-2.0119-0.074638-0.75956-0.029169-1.4622-0.35454-1.9798-0.91351-0.5174-0.56137-0.78769-1.2876-0.75761-2.0476l0.088279-2.2248c0.039625-1.0215 0.93755-1.5973 1.8105-1.7147 1.0755-0.1433 2.8673-0.0073 5.4017 0.42509 0.65686 0.11218 1.2428 0.49765 1.6088 1.0579 0.36455 0.5602 0.48004 1.2512 0.31888 1.8915-0.04047 0.14655-1.0213 3.6009-4.4789 3.6009z" stroke-width=".064959"/></svg>
