[
	"alkj",
	"balk",
	"blaj",
	"blal",
	"ccfe",
	"cerc",
	"cfew",
	"crcw",
	"cten",
	"cwef",
	"cwer",
	"dgji",
	"dhdn",
	"djuo",
	"dmjc",
	"efcc",
	"ehew",
	"ercw",
	"erhu",
	"eruh",
	"fccf",
	"fdgj",
	"fdju",
	"ffgf",
	"fgff",
	"fgfg",
	"fghu",
	"fyut",
	"gfdg",
	"gffg",
	"gfgf",
	"ghui",
	"gjif",
	"gyhu",
	"gyuw",
	"hdnv",
	"hewr",
	"huik",
	"huiw",
	"huwe",
	"ifdj",
	"igsd",
	"ikty",
	"iwre",
	"jbla",
	"jcte",
	"jifd",
	"jigs",
	"jksd",
	"juoi",
	"kjbl",
	"kqnw",
	"kqwk",
	"ksdm",
	"ktyf",
	"kuyt",
	"lajk",
	"lbal",
	"lkjb",
	"lsdm",
	"m sk",
	"mdhj",
	"nvji",
	"oidf",
	"rcer",
	"rcwe",
	"rhue",
	"rhui",
	"ruhu",
	"sdhd",
	"sdmd",
	"sdmj",
	"skqn",
	"skqw",
	"swqn",
	"tenv",
	"tfgh",
	"tyfy",
	"uerh",
	"uerw",
	"ugfd",
	"uhuw",
	"uikt",
	"uiwr",
	"uoid",
	"uwer",
	"uytf",
	"vjig",
	"wefc",
	"werc",
	"werh",
	"weru",
	"wqnm",
	"wreh",
	"yfyu",
	"yhue",
	"ytfg",
	"yugf",
	"yutf",
	"yuwe",
	"fgsd",
	"ergs",
	"grty",
	"drgd",
	"alsd",
	"mjct",
	"envj",
	"djks",
	"dmdh",
	"jsdh",
	"dnv",
	"xzzf",
	"afsa",
	"tdg",
	"gsz",
	"sz",
	"duhe",
	"edc",
	"cgh",
	"ghd",
	"turru",
	"rurt",
	"fgj",
	"gjg",
	"gfk",
	"glh",
	"huj",
	"shd",
	"bcc",
	"hshs",
	"djdj",
	"asda",
	"fdfd",
	"dxxc",
	"hhhh",
	"bxcb",
	"blabla",
	"bloblo",
	"aloh",
	"nrnr",
	"fgdg",
	"ffyf",
	"baaf",
	"ddcc",
	"ffdd",
	"sjsn",
	"sfdd",
	"fqef",
	"fsff",
	"ddxc",
	"gdgf",
	"hfcb",
	"gjdj",
	"hxgh",
	"xhgx",
	"bhbh",
	"kjhh",
	"bsbs",
	"klhl",
	"rqrq",
	"kekd",
	"sasa",
	"sisi",
	"reret",
	"xdsg",
	"abec",
	"fefe",
	"webo",
	"nyolx",
	"ccgjh",
	"fadf",
	"bulabe",
	"efq",
	"luego",
	"erdem",
	"juanbenito",
	"yolo",
	"ddsv",
	"memo",
	"fulanito",
	"hfcbbi",
	"hjdjh",
	"rirdfo",
	"hisjd",
	"ezra",
	"vcb",
	"taewe",
	"http",
	"fsdgfsd",
	"pancho",
	"lokon",
	"izhmir",
	"gmbo",
	"tito",
	"erwq",
	"jhk",
	"aaee",
	"oeds",
	"milki",
	"oskr",
	"sunn",
	"rerer",
	"nora vivia",
	"retrdtr",
	"krmn",
	"hrth",
	"afwef",
	"codision",
	"ytufut",
	"rwerwere",
	"akiva",
	"jeziel",
	"bla bla",
	"raraaf",
	"kbd",
	"dage",
	"dgfg",
	"frfregetgr",
	"yuya",
	"fuif",
	"xghij",
	"wegwgr",
	"vhg",
	"gvg",
	"fdghf",
	"luigui",
	"luialmanza",
	"asdasdas",
	"xereerer",
	"puta madre",
	"gdfgd",
	"matafesio",
	"ttgt",
	"bfbf",
	"ahhesaqs",
	"asdda",
	"yolia",
	"sedd",
	"dffgt",
	"tutsi",
	"fefreferfr",
	"assaasa",
	"sfdzser",
	"chucho",
	"ghfg",
	"alfito",
	"ckbad",
	"huhbgvf",
	"adaw",
	"wwdd",
	"asumen",
	"xdsgdg",
	"martona",
	"chanfle",
	"dfgdf",
	"hhjhge",
	"dnjs",
	"hhj",
	"kajs",
	"jsjs",
	"jajaj",
	"aasaa",
	"aafs",
	"only",
	"networ",
	"agah",
	"shsh",
	"jjs",
	"gghh",
	"bbhh",
	"nkoh",
	"klhj",
	"gdgd",
	"xret",
	"xrre",
	"kml",
	"iolk",
	"tengo",
	"pgom",
	"cst",
	"suhh",
	"ghf",
	"pepito",
	"iuni",
	"ujiu",
	"baby",
	"lolo",
	"hardy",
	"control",
	"desconocido",
	"apocope",
	"zvzc",
	"csaf",
	"wars",
	"atsv",
	"qeax",
	"gasf",
	"csaz",
	"klkl",
	"rowe",
	"ejrl",
	"dsc",
	"nivx",
	"djfa",
	"eoir",
	"kdlf",
	"fsdl",
	"kwje",
	"xlcv",
	"rtuy",
	"jcvn",
	"qazx",
	"swed",
	"dcvf",
	"vrtg",
	"byhn",
	"mjui",
	"iklo",
	"fdfg",
	"yuiop",
	"fghj",
	"jklm",
	"zxcv",
	"zxcvb",
	"xcvb",
	"cvbn",
	"vbnm",
	"mnbv",
	"cxza",
	"fdsa",
	"kjhg",
	"lkjh",
	"poiu",
	"iuuyt",
	"rewq",
	"wqwqw",
	"qwqw",
	"zqwd",
	"qwdd",
	"wksn",
	"ksnj",
	"snjs",
	"nsns",
	"snsn",
	"woie",
	"oier",
	"ssgg",
	"hjje",
	"jjee",
	"wwee",
	"eerr",
	"ttyy",
	"yyuu",
	"tyyu",
	"aass",
	"assd",
	"ssdd",
	"soso",
	"dsew",
	"sewq",
	"ewqe",
	"wqew",
	"qewt",
	"eqwt",
	"qwte",
	"wtew",
	"ewew",
	"wewq",
	"ewqw",
	"wqwq",
	"aegs",
	"egsb",
	"gsbg",
	"jkty",
	"ktyt",
	"tyty",
	"ytyj",
	"tyjr",
	"ewer",
	"fdd",
	"kbak",
	"ijus",
	"ppe",
	"edau",
	"dgh",
	"wdc",
	"ksdy",
	"fetg",
	"didd",
	"sdvs",
	"asaf",
	"ghh",
	"xxx",
	"msus",
	"fsd",
	"tuyt",
	"elver",
	"jsks",
	"drozz",
	"lmm",
	"leet",
	"hfc",
	"ccxx",
	"fff",
	"hlek",
	"hjja",
	"pee",
	"ryyy",
	"viro",
	"ajaj",
	"utbb",
	"psm",
	"djah",
	"msm",
	"brgb",
	"kik",
	"vbv",
	"ghg",
	"tdfy",
	"xhkf",
	"aqwew",
	"kll",
	"sdd",
	"jgkk",
	"aaad",
	"abb",
	"mylady",
	"fgg",
	"adfw",
	"mmnj",
	"jhgs",
	"ffkc",
	"idj",
	"ernej",
	"abc",
	"adk",
	"cdcd",
	"xasf",
	"jkk",
	"adds",
	"frr",
	"gyuu",
	"ffca",
	"ftgh",
	"ffsf",
	"aasds",
	"afdsjkl",
	"asdrubal",
	"xxasd",
	"asfcasdc",
	"fewrwererwee",
	"hfs",
	"ayoung",
	"fddsadas",
	"xcasd",
	"ewrwer",
	"fjddjv",
	"adfwf",
	"nohh",
	"tzuc",
	"lumbi",
	"xadsa",
	"werwer",
	"dgvxgv",
	"afoaisnfona",
	"noh",
	"zib",
	"vgfyhjrfyje",
	"asdf",
	"maruio",
	"mander",
	"mades",
	"gayluis",
	"gaylor",
	"asdk",
	"ajfi",
	"ojss",
	"cxbcvn",
	"oacr",	
	"atom",
	"aksis",
	"jolik",
	"veic",
	"knight",
	"caca",
	"orina",
	"mierda",
	"asqueroso",
	"apellido",
	"qwrqwweq",
	"superman",
	"culiada",
	"manches",
	"maricon",
	"pendejo",
	"batman",
	"marica",
	"ramera",
	"skulls",
	"dadsa",
	"dffdd",
	"holis",
	"mamar",
	"nalga",
	"perra",
	"tinaa",
	"kdfh",
	"jslk",
	"dlkf",
	"wieo",
	"completonopasa",
	"cnvm",
	"trial",
	"iuiou",
	"aeiou",
	"adsf",
	"culo",
	"jaja",
	"joto",
	"nomb",
	"pito",
	"puta",
	"puto",
	"xoxo",
	"verga",
	"nene",
	"dada",
	"baboso",
	"pantera",
	"pene",
	"popo",
	"tu puta madre",
	"chinga",
	"zqwdd",
	"web",
	"gwer",
	"dfgh",
	"dfgha",
	"fgh",
	"wweerr",
	"sososo",
	"aegsbg",
	"wksnjs",
	"woier",
	"segibia",
	"dassgg",
	"ttyyuu",
	"qwer",
	"dsewqewt",
	"goerd",
	"nsnsn",
	"ajuer",
	"hjjee",
	"aassdd",
	"eqwtewewqwq",
	"jktytyjr",
	"chula",
	"perdo",
	"lopo",
	"heintricu",
	"rocken",
	"shazam",
	"coca",
	"nombre",
	"kiko",
	"moco",
	"moshe",
	"privado",
	"kimo",
	"contacto",
	"perro",
	"demos",
	"tutu",
	"sionsa",
	"ninguno",
	"poseidon",
	"asf",
	"pancho",
	"abombado",
	"asds",
	"dhhgdd",
	"oiidl",
	"xhhjh",
	"ooiddl",
	"fhhjse",
	"camaney",
	"mouse",
	"goku",
	"gohan"
]