<?xml version="1.0" encoding="UTF-8"?>
<svg width="580.25pt" height="576.39pt" version="1.1" viewBox="0 0 580.24512 576.38739" xmlns="http://www.w3.org/2000/svg" xmlns:cc="http://creativecommons.org/ns#" xmlns:dc="http://purl.org/dc/elements/1.1/" xmlns:rdf="http://www.w3.org/1999/02/22-rdf-syntax-ns#">
 <metadata>
  <rdf:RDF>
   <cc:Work rdf:about="">
    <dc:format>image/svg+xml</dc:format>
    <dc:type rdf:resource="http://purl.org/dc/dcmitype/StillImage"/>
    <dc:title/>
   </cc:Work>
  </rdf:RDF>
 </metadata>
 <g id="#f79b63ff" transform="translate(-46.266 -12.01)" fill="#f79b63">
  <path d="m307.65 12.73c8.43-0.8 16.92-0.8 25.38-0.63 38.4 0.81 76.89 7.26 112.85 20.98 38.32 14.46 73.23 37.93 100.91 68.13 33.83 36.94 57.33 82.8 69.82 131.18 1.95 8.19 4.1 16.37 5.02 24.75-8.82 3.8-18.15 6.22-27.23 9.3-6.74 2.02-13.25 4.79-20.12 6.33-0.45-0.94-0.88-1.88-1.29-2.82-1.67-14.41-5.88-28.41-11.02-41.93-1.26-3.59-3.42-7-3.63-10.86 1.03-3.34 3.12-6.23 4.35-9.49 1.73-4.04 2.03-8.48 2.1-12.82 0.06-1.79 0.04-3.58 0.03-5.36 0.6-16.94-12.48-32.77-28.8-36.54-5.12-1.39-10.45-0.94-15.66-0.53-31.94-35.39-72.49-64.07-118.69-77.15-46.23-13.67-96.14-11.14-142.11 2.29-19.91 5.83-39.26 13.63-57.54 23.47-6.16 3.27-11.64 7.61-17.17 11.81-42.2 32.24-75.69 76.19-93.72 126.27-5.28 15.06-10.09 30.41-12.4 46.25l-0.23 0.85c-0.5 1.19-0.81 2.46-0.82 3.76l-0.14 0.95c-0.41 1.65-0.71 3.32-0.84 5.03l-0.16 0.96c-0.41 1.55-0.72 3.14-0.67 4.76-1.01 14.75-2.76 29.55-1.76 44.36 1.66 37.94 12.64 75.39 31.51 108.33 19.8 34.74 47.5 64.57 79.08 88.93 15.43 12.02 31.97 22.57 49.26 31.7-9.43-2.45-18.01-7.24-26.94-11.01-57.35-27.77-103.9-75.72-132.75-132.27-6.22-12.1-11.72-24.63-15.2-37.82-5.81-19.65-9.39-39.86-11.78-60.19-1.08-9.19-0.92-18.47-0.98-27.7-0.79-43.8 9.08-87.59 27.35-127.33 9.2-19.82 20.4-38.78 34.28-55.69 26.54-35.14 61.57-63.81 101.34-82.73 30.82-14.86 64.33-24.16 98.37-27.52z"/>
  <path d="m306.77 178.36c11.59-2.34 23.52-2.34 35.31-2.05 29.5 1.37 58.25 11.09 83.58 26.05 19.85 11.76 37.97 26.4 53.72 43.25 3.89 4.4 8.28 8.43 11.39 13.47-5.36-4.13-9.77-9.34-15.24-13.33-10.85-9.18-22.65-17.24-34.99-24.28-22.82-12.79-48.21-21.75-74.46-23.31-10.48-0.58-21.12-0.18-31.3 2.55-31.46 7.49-62.31 19.97-87.71 40.35-8.96 7.14-17.15 15.27-24.36 24.19-1.67-2.31-3.53-4.47-5.4-6.6-7.31-8.65-18.86-13.33-30.14-11.94 0.89-2.42 2.59-4.38 4.28-6.26 6.14-6.84 12.08-14.03 19.64-19.38 8.94-6.65 18.33-12.69 27.98-18.26 1.09-0.64 2.18-1.27 3.28-1.91 5.62 4.06 11.87 7.74 18.88 8.6 6.75 0.76 13.83 0.59 20.19-2.04 10.32-4.12 19.04-12.96 21.78-23.88 0.72-2.01 1.73-4.01 3.57-5.22z"/>
  <path d="m154.48 300.68c4.56 4.74 7.73 10.86 13.5 14.37 7.42 5.5 16.8 7.3 25.87 6.73-1.25 4.8-2.18 9.68-3.07 14.56l-0.25 0.84c-0.51 1.15-0.8 2.39-0.73 3.66-0.07 0.55-0.21 1.65-0.27 2.2-0.49 1.16-0.8 2.4-0.68 3.68-0.02 4.46-0.75 8.87-1.03 13.31-0.74 13.47-0.31 27.02 1.77 40.37-4.76 3.88-10.79 5.45-16.3 7.91-7.86 3.38-15.81 6.53-23.67 9.89-3.73-12.22-6.01-24.81-7.39-37.5-1.51-15.62-0.03-31.41 2.72-46.82 2.07-11.36 5.95-22.26 9.53-33.2z"/>
 </g>
 <g id="#1e1d1eff" transform="translate(-46.266 -12.01)" fill="#1e1d1e">
  <path d="m259.56 77.56c45.97-13.43 95.88-15.96 142.11-2.29 46.2 13.08 86.75 41.76 118.69 77.15-1.8 0.09-3.59 0.07-5.39 0.09-9.79-11.69-21.62-21.5-33.49-30.99-35.15-27.43-77.98-45.33-122.51-49.24-36.33-3.55-73.18 1.76-107.83 12.89-18.55 6.05-36.66 13.63-53.56 23.4-19.27 12.97-36.64 28.6-52.34 45.67-29.11 32.21-50.79 71.27-61.85 113.31-1.83 5.86-2.41 12.07-4.66 17.81 2.31-15.84 7.12-31.19 12.4-46.25 18.03-50.08 51.52-94.03 93.72-126.27 5.53-4.2 11.01-8.54 17.17-11.81 18.28-9.84 37.63-17.64 57.54-23.47z"/>
  <path d="m334.78 200.71c10.18-2.73 20.82-3.13 31.3-2.55 26.25 1.56 51.64 10.52 74.46 23.31 12.34 7.04 24.14 15.1 34.99 24.28 4.35 6.67 10.64 11.81 15.16 18.39-7.56-6.39-14.67-13.31-22.67-19.17-20.9-16.04-44.4-29.08-69.87-36.15-18.14-5.13-37.33-7.31-56.07-4.66-38.13 8.01-75.97 23.2-104.69 50.22-4.74 4.34-8.93 9.23-13.46 13.79-0.38-0.99-0.79-1.97-1.22-2.92 7.21-8.92 15.4-17.05 24.36-24.19 25.4-20.38 56.25-32.86 87.71-40.35z"/>
 </g>
 <g id="#0b8b45ff" transform="translate(-46.266 -12.01)">
  <path d="m391.09 107.06c6.45-2.2 13.78-3.15 20.37-1.05-5.71 1.91-12.12 2.56-16.92 6.51-4.8 3.71-8.45 9.24-8.63 15.44-0.81 7.39 1.16 15.25 6.56 20.57 6.09 5.81 15.24 9.05 23.51 6.48 11.88-2.81 20.21-15.82 17.7-27.77-0.84-3.9-2.24-7.65-3.58-11.39 10.86 8.56 12.96 24.01 10.71 36.89-0.54 1.24-1.13 2.46-1.71 3.69-3.6 0.13-6.58 2.21-9.36 4.29-8.37 6.07-19.48 7.86-29.39 5.02-8.49-1.85-15.3-7.98-20.18-14.91-4.84-7.28-7.33-16.46-5.48-25.12 0.59-2.99 1.32-5.95 2.16-8.87 3.36-4.82 8.96-7.56 14.24-9.78z" fill="#0b8b45"/>
 </g>
 <g id="#0d9d4aff" transform="translate(-46.266 -12.01)">
  <path d="m394.54 112.52c4.8-3.95 11.21-4.6 16.92-6.51 4.16-0.28 7.97 2.13 11.59 3.92 2.6 1.58 5.54 3.14 7.05 5.92 1.34 3.74 2.74 7.49 3.58 11.39 2.51 11.95-5.82 24.96-17.7 27.77-8.27 2.57-17.42-0.67-23.51-6.48-5.4-5.32-7.37-13.18-6.56-20.57 0.18-6.2 3.83-11.73 8.63-15.44m12.84 5.85c-6.42 0.94-11.03 7.31-10.66 13.65 0.11 6.8 6.5 12.71 13.28 12.37 7.14 0.42 13.22-6.45 13-13.36-0.03-7.69-8.14-14.1-15.62-12.66z" fill="#0d9d4a"/>
 </g>
 <g id="#08763fff" transform="translate(-46.266 -12.01)">
  <path d="m366.65 137.86c1.01-7.79 4.14-15.79 10.2-21.02-0.84 2.92-1.57 5.88-2.16 8.87-1.85 8.66 0.64 17.84 5.48 25.12 4.88 6.93 11.69 13.06 20.18 14.91 9.91 2.84 21.02 1.05 29.39-5.02 2.78-2.08 5.76-4.16 9.36-4.29-3.09 8.04-9.11 14.77-16.53 19.1-10.56 6.11-24.18 6.39-35.09 1-9.2-4.47-16.34-12.88-19.45-22.6-1.58-5.19-1.59-10.7-1.38-16.07z" fill="#08763f"/>
 </g>
 <g id="#3bb76dff" transform="translate(-46.266 -12.01)">
  <path d="m407.38 118.37c7.48-1.44 15.59 4.97 15.62 12.66 0.22 6.91-5.86 13.78-13 13.36-6.78 0.34-13.17-5.57-13.28-12.37-0.37-6.34 4.24-12.71 10.66-13.65m-1.01 3.07c-5.51 1.85-8.63 8.94-6.05 14.21 1.37 3.57 5.05 5.83 8.77 6.13 6.62 0.8 12.39-6.36 10.85-12.71-1-5.99-8.01-9.46-13.57-7.63z" fill="#3bb76d"/>
 </g>
 <g id="#6ac890ff" transform="translate(-46.266 -12.01)">
  <path d="m406.37 121.44c5.56-1.83 12.57 1.64 13.57 7.63 1.54 6.35-4.23 13.51-10.85 12.71-3.72-0.3-7.4-2.56-8.77-6.13-2.58-5.27 0.54-12.36 6.05-14.21m0.05 2.99c-3.71 1.89-5.42 6.89-3.42 10.6 2.08 4.11 7.97 5.05 11.62 2.56 2.82-2.37 3.27-6.77 1.76-9.99-1.64-3.66-6.52-4.49-9.96-3.17z" fill="#6ac890"/>
 </g>
 <g id="#98d9b2ff" transform="translate(-46.266 -12.01)">
  <path d="m406.42 124.43c3.44-1.32 8.32-0.49 9.96 3.17 1.51 3.22 1.06 7.62-1.76 9.99-3.65 2.49-9.54 1.55-11.62-2.56-2-3.71-0.29-8.71 3.42-10.6m0.38 3.37c-3.35 2.37-1.02 8.62 3.2 7.97 4.11 0.27 4.3-4.55 3.79-7.48-2.16-0.88-4.85-1.93-6.99-0.49z" fill="#98d9b2"/>
 </g>
 <g id="#d6f0e1ff" transform="translate(-46.266 -12.01)">
  <path d="m406.8 127.8c2.14-1.44 4.83-0.39 6.99 0.49 0.51 2.93 0.32 7.75-3.79 7.48-4.22 0.65-6.55-5.6-3.2-7.97z" fill="#d6f0e1"/>
 </g>
 <g id="#c22f2cff" transform="translate(-46.266 -12.01)">
  <path d="m255.08 137.02c3.36-2.35 7.94-2.2 11.93-2.5 17.55-0.64 34.57 12.89 37.34 30.33-2.55 7.25-5.64 14.75-11.64 19.85-8 6.92-19.74 8.87-29.61 5.12-14.16-4.79-22.26-21.69-18.12-35.87 1.78-6.45 6.4-11.51 10.1-16.93m12.29 2.49c-6.83 1.7-12.76 6.91-15.31 13.49-4.15 9.19-0.77 20.76 6.78 27.15 5.42 4.71 13.11 5.43 19.97 4.51 12.48-2.4 21.05-16.67 17.26-28.81-1.83-5.22-4.57-10.49-9.3-13.62-5.56-4.05-12.94-3.57-19.4-2.72z" fill="#c22f2c"/>
 </g>
 <g id="#a92e28ff" transform="translate(-46.266 -12.01)">
  <path d="m241.9 144.89c3.35-3.94 8.15-6.69 13.18-7.87-3.7 5.42-8.32 10.48-10.1 16.93-4.14 14.18 3.96 31.08 18.12 35.87 9.87 3.75 21.61 1.8 29.61-5.12 6-5.1 9.09-12.6 11.64-19.85 1.11 4.14 0.37 8.51 1.19 12.65 0.31 0.22 0.92 0.65 1.23 0.86-1.84 1.21-2.85 3.21-3.57 5.22-4.6 2.44-7.66 6.91-12.2 9.44-13.7 7.9-32.74 5.18-43.3-6.73-6.35-6.76-9.85-16.04-9.75-25.29 0.09-5.6 2.1-10.9 3.95-16.11z" fill="#a92e28"/>
 </g>
 <g id="#221e1fff" transform="translate(-46.266 -12.01)">
  <path d="m367.04 155.97c-1.25-5.95-0.88-12.1-0.39-18.11-0.21 5.37-0.2 10.88 1.38 16.07 3.11 9.72 10.25 18.13 19.45 22.6 10.91 5.39 24.53 5.11 35.09-1 7.42-4.33 13.44-11.06 16.53-19.1 0.58-1.23 1.17-2.45 1.71-3.69-1.24 18.27-18.72 33.08-36.81 32.69-17.27 0.51-33.5-12.59-36.96-29.46z" fill="#221e1f"/>
 </g>
 <g id="#e23132ff" transform="translate(-46.266 -12.01)">
  <path d="m267.37 139.51c6.46-0.85 13.84-1.33 19.4 2.72 4.73 3.13 7.47 8.4 9.3 13.62 3.79 12.14-4.78 26.41-17.26 28.81-6.86 0.92-14.55 0.2-19.97-4.51-7.55-6.39-10.93-17.96-6.78-27.15 2.55-6.58 8.48-11.79 15.31-13.49m-1.99 10.8c-3.69 2.18-3.92 6.86-3.88 10.68 0.14 3.73-0.55 8.19 2.44 11.05 2.46 2.92 6.66 2.28 10.06 2.45 3.56-0.12 8.28 0.43 10.15-3.41 2.15-4.68 1.18-10.12 1.15-15.12 0.09-3.79-3.86-6.17-7.27-6.27-4.19-0.19-8.57-0.57-12.65 0.62z" fill="#e23132"/>
 </g>
 <g id="#8f2e24ff" transform="translate(-46.266 -12.01)">
  <path d="m229.82 169.82c0.73-9.35 4.63-18.97 12.08-24.93-1.85 5.21-3.86 10.51-3.95 16.11-0.1 9.25 3.4 18.53 9.75 25.29 10.56 11.91 29.6 14.63 43.3 6.73 4.54-2.53 7.6-7 12.2-9.44-2.74 10.92-11.46 19.76-21.78 23.88-6.36 2.63-13.44 2.8-20.19 2.04-7.01-0.86-13.26-4.54-18.88-8.6-8.31-8.05-13.42-19.39-12.53-31.08z" fill="#8f2e24"/>
 </g>
 <g id="#ef7c7dff" transform="translate(-46.266 -12.01)">
  <path d="m265.38 150.31c4.08-1.19 8.46-0.81 12.65-0.62 3.41 0.1 7.36 2.48 7.27 6.27 0.03 5 1 10.44-1.15 15.12-1.87 3.84-6.59 3.29-10.15 3.41-3.4-0.17-7.6 0.47-10.06-2.45-2.99-2.86-2.3-7.32-2.44-11.05-0.04-3.82 0.19-8.5 3.88-10.68m5.02 3.06c-3.11 1.26-5.7 4.15-5.77 7.63-0.77 4.98 3.77 9.43 8.43 10.12 6.59 0.86 11.92-7.25 8.92-13.03-1.91-4.19-7.26-6.6-11.58-4.72z" fill="#ef7c7d"/>
 </g>
 <g id="#ed802fff" transform="translate(-46.266 -12.01)">
  <path d="m509.18 155.07c1.33-1.77 3.63-2.59 5.79-2.56 1.8-0.02 3.59 0 5.39-0.09 5.21-0.41 10.54-0.86 15.66 0.53 16.32 3.77 29.4 19.6 28.8 36.54-4.48 3.77-5.26 9.99-9.09 14.24-9.97 11.47-27.92 15.12-41.43 7.98-7.33-4.08-13.87-10.39-16.44-18.56-2.24-6.97-2.88-14.76-0.49-21.78 2.17-6.58 8.03-10.75 11.81-16.3m20.1 8.23c-9.5 0.28-17.72 9.15-17.48 18.61 0.7 7.35 5.65 14.46 12.96 16.48 10.71 4.1 22.71-5.71 22.94-16.67 0.63-9.89-8.53-19.06-18.42-18.42z" fill="#ed802f"/>
 </g>
 <g id="#f4a6a7ff" transform="translate(-46.266 -12.01)">
  <path d="m270.4 153.37c4.32-1.88 9.67 0.53 11.58 4.72 3 5.78-2.33 13.89-8.92 13.03-4.66-0.69-9.2-5.14-8.43-10.12 0.07-3.48 2.66-6.37 5.77-7.63m1.99 3.06c-5.05 0.72-6.01 8.61-1.4 10.57 3.37 2.09 8.55-0.97 8.02-5 0.36-3.44-3.21-6.78-6.62-5.57z" fill="#f4a6a7"/>
 </g>
 <g id="#ec7230ff" transform="translate(-46.266 -12.01)">
  <path d="m499.35 161.33c2.81-2.7 5.9-5.43 9.83-6.26-3.78 5.55-9.64 9.72-11.81 16.3-2.39 7.02-1.75 14.81 0.49 21.78 2.57 8.17 9.11 14.48 16.44 18.56 13.51 7.14 31.46 3.49 41.43-7.98 3.83-4.25 4.61-10.47 9.09-14.24 0.01 1.78 0.03 3.57-0.03 5.36-1.13 4.56-2.42 9.14-4.62 13.32-6.05 10.85-17.69 18.42-30.14 19.16-11.74 0.95-23.74-4.02-31.38-12.98-3.93-4.47-5.97-10.16-8.76-15.34-2.08-3.67-1.7-8.02-1.72-12.07-0.13-9.63 4.33-18.97 11.18-25.61z" fill="#ec7230"/>
 </g>
 <g id="#fad7d8ff" transform="translate(-46.266 -12.01)">
  <path d="m272.39 156.43c3.41-1.21 6.98 2.13 6.62 5.57 0.53 4.03-4.65 7.09-8.02 5-4.61-1.96-3.65-9.85 1.4-10.57z" fill="#fad7d8"/>
 </g>
 <g id="#f1a05cff" transform="translate(-46.266 -12.01)">
  <path d="m529.28 163.3c9.89-0.64 19.05 8.53 18.42 18.42-0.23 10.96-12.23 20.77-22.94 16.67-7.31-2.02-12.26-9.13-12.96-16.48-0.24-9.46 7.98-18.33 17.48-18.61m-1.9 3.09c-3.82 0.88-7.73 2.7-9.87 6.13-3.74 5.6-3.6 13.82 1.21 18.76 4.5 5.25 12.69 6.27 18.66 3.11 4.27-2.28 6.53-7.04 7.38-11.61 1.37-9.3-8.13-18.4-17.38-16.39z" fill="#f1a05c"/>
 </g>
 <g id="#f3b077ff" transform="translate(-46.266 -12.01)">
  <path d="m527.38 166.39c9.25-2.01 18.75 7.09 17.38 16.39-0.85 4.57-3.11 9.33-7.38 11.61-5.97 3.16-14.16 2.14-18.66-3.11-4.81-4.94-4.95-13.16-1.21-18.76 2.14-3.43 6.05-5.25 9.87-6.13m-1 3.06c-8.88 2.01-11.62 15.21-4.68 20.86 6.36 6.03 18.71 2.48 20.05-6.49 2.44-8.66-6.9-17.38-15.37-14.37z" fill="#f3b077"/>
 </g>
 <g id="#f6c194ff" transform="translate(-46.266 -12.01)">
  <path d="m526.38 169.45c8.47-3.01 17.81 5.71 15.37 14.37-1.34 8.97-13.69 12.52-20.05 6.49-6.94-5.65-4.2-18.85 4.68-20.86m0.99 2.92c-1.4 0.46-2.63 1.32-3.71 2.29-5.41 4.27-2.82 14.88 4.39 15.38 5.24 1.3 10.59-2.81 10.89-8.12 0.86-6.08-5.76-11.57-11.57-9.55z" fill="#f6c194"/>
 </g>
 <g id="#1e1e1fff" transform="translate(-46.266 -12.01)" fill="#1e1e1f">
  <path d="m239.07 202.81c-7.53-9.07-11.14-21.31-9.25-32.99-0.89 11.69 4.22 23.03 12.53 31.08-1.1 0.64-2.19 1.27-3.28 1.91z"/>
  <path d="m560.17 208.17c2.2-4.18 3.49-8.76 4.62-13.32-0.07 4.34-0.37 8.78-2.1 12.82-1.23 3.26-3.32 6.15-4.35 9.49 0.21 3.86 2.37 7.27 3.63 10.86 5.14 13.52 9.35 27.52 11.02 41.93 0.05 0.51 0.14 1.54 0.18 2.05-0.43-0.98-0.79-1.98-1.07-3.01-3.12-17.04-8.55-33.72-16.04-49.34-7.47 7.39-17.25 13.17-28.08 12.84-18.87 1.09-36.87-14.58-38.09-33.48 2.79 5.18 4.83 10.87 8.76 15.34 7.64 8.96 19.64 13.93 31.38 12.98 12.45-0.74 24.09-8.31 30.14-19.16z"/>
 </g>
 <g id="#f8d3b3ff" transform="translate(-46.266 -12.01)">
  <path d="m527.37 172.37c5.81-2.02 12.43 3.47 11.57 9.55-0.3 5.31-5.65 9.42-10.89 8.12-7.21-0.5-9.8-11.11-4.39-15.38 1.08-0.97 2.31-1.83 3.71-2.29m1.93 3.09c-3.9 0.12-6.18 4.48-4.65 7.9 1.54 4.56 9.33 4.64 10.54-0.2 1.65-3.65-2.09-8.11-5.89-7.7z" fill="#f8d3b3"/>
 </g>
 <g id="#fcebddff" transform="translate(-46.266 -12.01)">
  <path d="m529.3 175.46c3.8-0.41 7.54 4.05 5.89 7.7-1.21 4.84-9 4.76-10.54 0.2-1.53-3.42 0.75-7.78 4.65-7.9z" fill="#fcebdd"/>
 </g>
 <g id="#4379b1ff" transform="translate(-46.266 -12.01)">
  <path d="m176.17 249.05c3.19-2.2 7.25-2.37 11-2.34-3.98 4.17-9.55 7.04-11.91 12.59-5.26 10.02-1.49 23.41 7.86 29.59 5.4 3.57 12.31 3.94 18.5 2.69 7.89-1.63 13.88-8.43 16.03-15.98 1.66-5.55 0.33-11.36-0.34-16.95 1.87 2.13 3.73 4.29 5.4 6.6 0.43 0.95 0.84 1.93 1.22 2.92 0.04 0.37 0.14 1.12 0.18 1.49-1.55 5.29-2.65 10.94-6 15.46-3.33 4.41-7.67 8.24-12.94 10.12-9.34 3.68-20.65 1.38-27.98-5.44-5.11-4.62-7.93-11.34-8.9-18.07-0.87-8.32 3.49-15.96 7.88-22.68z" fill="#4379b1"/>
 </g>
 <g id="#488bc3ff" transform="translate(-46.266 -12.01)">
  <path d="m187.17 246.71c11.28-1.39 22.83 3.29 30.14 11.94 0.67 5.59 2 11.4 0.34 16.95-2.15 7.55-8.14 14.35-16.03 15.98-6.19 1.25-13.1 0.88-18.5-2.69-9.35-6.18-13.12-19.57-7.86-29.59 2.36-5.55 7.93-8.42 11.91-12.59m5.19 4.67c-8.83 1.8-15.92 10.42-15.26 19.52 1.17 9.11 9.28 17.76 18.9 17.18 10.3-0.01 19.11-9.83 18.05-20.07-0.61-10.43-11.35-19.11-21.69-16.63z" fill="#488bc3"/>
 </g>
 <g id="#3e689fff" transform="translate(-46.266 -12.01)">
  <path d="m167.14 254.07c2.09-2.87 5.74-4.07 9.03-5.02-4.39 6.72-8.75 14.36-7.88 22.68 0.97 6.73 3.79 13.45 8.9 18.07 7.33 6.82 18.64 9.12 27.98 5.44 5.27-1.88 9.61-5.71 12.94-10.12 3.35-4.52 4.45-10.17 6-15.46 1.1 1.93 2.11 3.99 2.32 6.24-1.28 6.75-4.73 13.08-9.98 17.55-8.96 8.12-22.91 9.96-33.82 4.93-10.04-4.55-17.38-14.47-18.48-25.49-0.83-6.43 1.23-12.72 2.99-18.82z" fill="#3e689f"/>
 </g>
 <g id="#4f9cd3ff" transform="translate(-46.266 -12.01)">
  <path d="m192.36 251.38c10.34-2.48 21.08 6.2 21.69 16.63 1.06 10.24-7.75 20.06-18.05 20.07-9.62 0.58-17.73-8.07-18.9-17.18-0.66-9.1 6.43-17.72 15.26-19.52m0.04 4.08c-4.21 1.23-8.33 3.85-9.79 8.19-4.04 7.74 1.26 18.25 9.74 19.98 9.13 2.49 19.16-6.09 17.61-15.55-0.51-8.41-9.43-14.89-17.56-12.62z" fill="#4f9cd3"/>
 </g>
 <g id="#38578eff" transform="translate(-46.266 -12.01)">
  <path d="m159.96 260.96c1.5-3.06 4.28-5.24 7.18-6.89-1.76 6.1-3.82 12.39-2.99 18.82 1.1 11.02 8.44 20.94 18.48 25.49 10.91 5.03 24.86 3.19 33.82-4.93 5.25-4.47 8.7-10.8 9.98-17.55 0.77 4.82 1.28 9.8 0.28 14.62l-0.19 0.79c-5.75 2.74-9.63 8.19-15.48 10.74-9.44 4.3-20.72 4.2-30.24 0.18-8.81-3.65-15.24-11.55-18.78-20.23-2.77-6.65-2.04-14.02-2.06-21.04z" fill="#38578e"/>
 </g>
 <g id="#69aedeff" transform="translate(-46.266 -12.01)">
  <path d="m192.4 255.46c8.13-2.27 17.05 4.21 17.56 12.62 1.55 9.46-8.48 18.04-17.61 15.55-8.48-1.73-13.78-12.24-9.74-19.98 1.46-4.34 5.58-6.96 9.79-8.19m-0.02 2.95c-6.62 1.53-10.2 9.59-7.43 15.66 2.69 7.28 13.65 9.62 18.87 3.75 3.63-3.25 4.16-8.82 2.49-13.18-2.28-5.16-8.58-7.88-13.93-6.23z" fill="#69aede"/>
 </g>
 <g id="#7a7c7dff" transform="translate(-46.266 -12.01)" fill="#7a7c7d">
  <path d="m621.63 257.14c5.16 22.2 5.25 45.18 4.6 67.84-0.33 5.95-0.72 11.9-1.53 17.81-0.89 6.68-1.15 13.49-3.01 20.01-0.73 2.71-1.29 5.47-1.83 8.23l-0.2 0.83c-3.99 15.05-8.17 30.1-14.35 44.43-7.27 17.53-16.38 34.3-27.02 50.01-19.4 29.81-44.7 55.72-73.71 76.25-25.53 17.8-54.52 30.98-85.18 36.76-44.38 8.12-90.94 3.58-132.98-12.75-29.63-11.43-56.78-29.27-78.85-52.13-22.68-22.99-39.31-51.16-52.61-80.4-2.35-5.07-4.08-10.39-5.34-15.83 7.86-3.36 15.81-6.51 23.67-9.89 5.51-2.46 11.54-4.03 16.3-7.91 9.04 21.13 23.17 40.75 42.54 53.51 9.09 5.98 19.51 9.93 30.29 11.46 7.08 0.93 14.23 0.28 21.34-0.01 2.47 4.05 5.15 8 8.49 11.39 20.6 22.12 47.37 38.75 76.73 46.27 11.2 3.08 22.79 4.29 34.29 5.71 9.48 1.18 18.86-1.07 28.27-1.86 7.38-0.66 14.51-2.83 21.67-4.66 7.45-2.3 15.05-4.39 22.02-7.97 8.46-4.37 17.21-8.35 24.84-14.14 8.53-5.63 16.18-12.44 23.66-19.36 4.89-5.47 9.41-11.28 14.09-16.93 8.56-12.04 16.33-24.85 20.99-38.95 2.36-7.66 5.66-15.05 7-23 1.8-8.2 2.49-16.57 3.16-24.91 0.35-2.68-0.68-5.21-1.57-7.66-0.5-1.12 0.18-2.32 0.41-3.41 9.21-26.83 8.64-55.75 6.24-83.65-0.17-2.84-0.39-5.68-0.71-8.5-0.04-0.44-0.13-1.3-0.17-1.73-0.04-0.51-0.13-1.54-0.18-2.05 0.41 0.94 0.84 1.88 1.29 2.82 6.87-1.54 13.38-4.31 20.12-6.33 9.08-3.08 18.41-5.5 27.23-9.3z"/>
  <path d="m374.58 366.39c1.93-10.68 9.98-20.23 20.44-23.39-5.34 6.02-10.63 13.45-9.26 21.99 0.79 12.6 13.87 22.42 26.17 20.13 8.83-1.29 16-8.62 18.31-17.06 0.88-4.05 0.61-8.24 0.6-12.36 4.57 4.86 5.3 11.98 5.1 18.35 0.02 11.74-8.11 22.64-18.78 27.08-5.38 2.34-11.41 2.7-17.17 1.97-10.61-1.6-19.92-9.3-23.86-19.23-2.3-5.5-2.2-11.66-1.55-17.48z"/>
 </g>
 <g id="#89bfe5ff" transform="translate(-46.266 -12.01)">
  <path d="m192.38 258.41c5.35-1.65 11.65 1.07 13.93 6.23 1.67 4.36 1.14 9.93-2.49 13.18-5.22 5.87-16.18 3.53-18.87-3.75-2.77-6.07 0.81-14.13 7.43-15.66m0.05 3.03c-5.13 2.06-7.17 9.3-3.38 13.51 4.03 5.81 14.57 3.19 15.05-4.01 1.45-6.51-5.65-12.09-11.67-9.5z" fill="#89bfe5"/>
 </g>
 <g id="#33477eff" transform="translate(-46.266 -12.01)">
  <path d="m154.93 269.81c0.7-3.4 2.68-6.36 5.03-8.85 0.02 7.02-0.71 14.39 2.06 21.04 3.54 8.68 9.97 16.58 18.78 20.23 9.52 4.02 20.8 4.12 30.24-0.18 5.85-2.55 9.73-8 15.48-10.74-0.74 2.84-1.54 5.68-2.65 8.4-5.67 2.72-10.92 6.43-17.03 8.15-11.72 2.93-24.87 1.37-34.7-5.98-10.52-7.24-15.29-19.92-17.21-32.07z" fill="#33477e"/>
 </g>
 <g id="#acd3edff" transform="translate(-46.266 -12.01)">
  <path d="m192.43 261.44c6.02-2.59 13.12 2.99 11.67 9.5-0.48 7.2-11.02 9.82-15.05 4.01-3.79-4.21-1.75-11.45 3.38-13.51m1.94 2.98c-4.52 0.79-5.55 7.59-1.4 9.62 3.18 2.17 7.89-0.29 7.92-4.11 0.65-3.52-3.35-6.25-6.52-5.51z" fill="#acd3ed"/>
 </g>
 <g id="#daebf7ff" transform="translate(-46.266 -12.01)">
  <path d="m194.37 264.42c3.17-0.74 7.17 1.99 6.52 5.51-0.03 3.82-4.74 6.28-7.92 4.11-4.15-2.03-3.12-8.83 1.4-9.62z" fill="#daebf7"/>
 </g>
 <g id="#2e376eff" transform="translate(-46.266 -12.01)">
  <path d="m152.54 276.89c0.17-2.53 1.24-4.86 2.39-7.08 1.92 12.15 6.69 24.83 17.21 32.07 9.83 7.35 22.98 8.91 34.7 5.98 6.11-1.72 11.36-5.43 17.03-8.15-1.66 3.78-4.12 7.14-7 10.08-7.26 1.33-14.4 3.87-21.89 3.46-20.37 0.25-39.6-16.17-42.44-36.36z" fill="#2e376e"/>
 </g>
 <g transform="translate(-46.266 -12.01)">
  <path d="m573.34 273.73c0.32 2.82 0.54 5.66 0.71 8.5-1.07-2.72-0.87-5.66-0.71-8.5z" fill="#232223" opacity=".71"/>
 </g>
 <g id="#29265cff" transform="translate(-46.266 -12.01)">
  <path d="m152.5 295.12c-1.65-5.93-0.77-12.22 0.04-18.23 2.84 20.19 22.07 36.61 42.44 36.36 7.49 0.41 14.63-2.13 21.89-3.46-5.76 6.86-14.3 10.66-23.02 11.99-9.07 0.57-18.45-1.23-25.87-6.73-5.77-3.51-8.94-9.63-13.5-14.37-0.28-0.52-0.84-1.54-1.12-2.05-0.02-1.23-0.32-2.42-0.86-3.51z" fill="#29265c"/>
 </g>
 <g transform="translate(-46.266 -12.01)">
  <path d="m77.68 289.97c0.01-1.3 0.32-2.57 0.82-3.76 1.49 0.77 0.95 3.83-0.82 3.76z" fill="#32251e" opacity=".73"/>
 </g>
 <g transform="translate(-46.266 -12.01)">
  <path d="m76.7 295.95c0.13-1.71 0.43-3.38 0.84-5.03 1.32 1.23 1.16 4.68-0.84 5.03z" fill="#3d2b21" opacity=".7"/>
 </g>
 <g id="#221f1fff" transform="translate(-46.266 -12.01)">
  <path d="m226.52 291.31 0.19-0.79c0.14 10.41-5.01 20.61-12.86 27.32-5.57 5.07-12.81 7.4-19.97 9.13-1.01 3.13-1.86 6.31-3.1 9.37 0.89-4.88 1.82-9.76 3.07-14.56 8.72-1.33 17.26-5.13 23.02-11.99 2.88-2.94 5.34-6.3 7-10.08 1.11-2.72 1.91-5.56 2.65-8.4z" fill="#221f1f"/>
 </g>
 <g id="#12100e8d" transform="translate(-46.266 -12.01)">
  <path d="m152.5 295.12c0.54 1.09 0.84 2.28 0.86 3.51-1.81 0.33-2.42-2.84-0.86-3.51z" fill="#12100e" opacity=".55"/>
 </g>
 <g id="#533829bf" transform="translate(-46.266 -12.01)">
  <path d="m75.87 301.67c-0.05-1.62 0.26-3.21 0.67-4.76 1.32 1.07 1.34 4.65-0.67 4.76z" fill="#533829" opacity=".75"/>
 </g>
 <g id="#1e1c1dff" transform="translate(-46.266 -12.01)">
  <path d="m47.29 333.7c2.39 20.33 5.97 40.54 11.78 60.19 3.48 13.19 8.98 25.72 15.2 37.82 28.85 56.55 75.4 104.5 132.75 132.27 8.53 6.86 18.69 11.18 28 16.81-30.09-10.66-58.29-26.65-83.01-46.85-31.73-26-57.84-58.67-76.85-94.98-4.63-9-8.89-18.21-12.36-27.72-7.26-22.34-12.41-45.38-15.15-68.71-0.34-2.93-0.4-5.89-0.36-8.83z" fill="#1e1c1d"/>
 </g>
 <g transform="translate(-46.266 -12.01)">
  <path d="m189.8 340.84c-0.07-1.27 0.22-2.51 0.73-3.66 1.48 0.7 1.05 3.82-0.73 3.66z" fill="#453127" opacity=".82"/>
 </g>
 <g id="#8f9193ff" transform="translate(-46.266 -12.01)">
  <path d="m395.02 343c12.11-4.63 27.01-0.15 34.73 10.27 0.58 0.72 0.94 1.52 1.09 2.43 0.01 4.12 0.28 8.31-0.6 12.36-2.31 8.44-9.48 15.77-18.31 17.06-12.3 2.29-25.38-7.53-26.17-20.13-1.37-8.54 3.92-15.97 9.26-21.99m10.35 2.39c-5.93 1.39-11.61 5.47-13.57 11.42-1.2 3.95-1.36 8.35 0.17 12.24 2.63 7.52 11.18 12.3 18.97 10.88 10.07-1 17.08-12.51 14.14-21.99-2.14-8.39-11.17-14.37-19.71-12.55z" fill="#8f9193"/>
 </g>
 <g id="#463125bf" transform="translate(-46.266 -12.01)">
  <path d="m188.85 346.72c-0.12-1.28 0.19-2.52 0.68-3.68 1.44 0.7 1.12 3.82-0.68 3.68z" fill="#463125" opacity=".75"/>
 </g>
 <g id="#9d9fa1ff" transform="translate(-46.266 -12.01)">
  <path d="m405.37 345.39c8.54-1.82 17.57 4.16 19.71 12.55 2.94 9.48-4.07 20.99-14.14 21.99-7.79 1.42-16.34-3.36-18.97-10.88-1.53-3.89-1.37-8.29-0.17-12.24 1.96-5.95 7.64-10.03 13.57-11.42m-1.01 5.99c-3.68 1.31-6.71 4.41-7.81 8.18-1.95 5.78 1.86 12.49 7.51 14.41 8.1 3.73 18.38-5.2 15.78-13.79-1.27-6.81-8.93-11.29-15.48-8.8z" fill="#9d9fa1"/>
 </g>
 <g id="#aeb0b3ff" transform="translate(-46.266 -12.01)">
  <path d="m404.36 351.38c6.55-2.49 14.21 1.99 15.48 8.8 2.6 8.59-7.68 17.52-15.78 13.79-5.65-1.92-9.46-8.63-7.51-14.41 1.1-3.77 4.13-6.87 7.81-8.18m1.01 3c-5.78 1.8-8.11 10.42-3.22 14.47 4.31 5.16 13.28 2.18 14.6-4.09 1.72-6.27-5.28-12.63-11.38-10.38z" fill="#aeb0b3"/>
 </g>
 <g id="#c8c9cbff" transform="translate(-46.266 -12.01)">
  <path d="m405.37 354.38c6.1-2.25 13.1 4.11 11.38 10.38-1.32 6.27-10.29 9.25-14.6 4.09-4.89-4.05-2.56-12.67 3.22-14.47m2.01 3.06c-2.52 0.6-4.77 2.8-4.31 5.57-0.84 5.32 8.28 6.84 9.94 2 2.31-3.6-1.57-8.69-5.63-7.57z" fill="#c8c9cb"/>
 </g>
 <g id="#e6e7e8ff" transform="translate(-46.266 -12.01)">
  <path d="m407.38 357.44c4.06-1.12 7.94 3.97 5.63 7.57-1.66 4.84-10.78 3.32-9.94-2-0.46-2.77 1.79-4.97 4.31-5.57z" fill="#e6e7e8"/>
 </g>
 <g transform="translate(-46.266 -12.01)">
  <path d="m619.86 371.03c0.54-2.76 1.1-5.52 1.83-8.23-0.05 2.83-0.36 5.73-1.83 8.23z" fill="#252324" opacity=".73"/>
 </g>
 <g id="#858789ff" transform="translate(-46.266 -12.01)">
  <path d="m559.52 384.57c3.1-4.86 4.66-10.5 7.88-15.28 0.89 2.45 1.92 4.98 1.57 7.66-0.67 8.34-1.36 16.71-3.16 24.91-1.34 7.95-4.64 15.34-7 23-4.66 14.1-12.43 26.91-20.99 38.95-4.68 5.65-9.2 11.46-14.09 16.93-7.48 6.92-15.13 13.73-23.66 19.36-7.63 5.79-16.38 9.77-24.84 14.14-6.97 3.58-14.57 5.67-22.02 7.97-7.16 1.83-14.29 4-21.67 4.66-9.41 0.79-18.79 3.04-28.27 1.86-11.5-1.42-23.09-2.63-34.29-5.71-29.36-7.52-56.13-24.15-76.73-46.27-3.34-3.39-6.02-7.34-8.49-11.39 8.28-1.77 16.41-4.3 24.8-5.51 4.76 7.02 11.21 12.61 17.93 17.69 16.16 12.75 35.45 21.05 55.44 25.63 8.87 2.02 18.01 2.3 27.06 2.92 14.03-0.57 28.25-1.79 41.6-6.46 7.49-2.64 15.05-5.19 22.07-8.95 15.56-8.74 30.26-19.51 41.51-33.5 4.11-4.96 8.42-9.82 11.55-15.49 4.78-8.48 9.56-17.03 12.88-26.21 0.81-2.21 0.91-4.57 0.91-6.89l0.01-0.68c7.91-6.59 14.95-14.31 20-23.34z" fill="#858789"/>
 </g>
 <g id="#201d1dff" transform="translate(-46.266 -12.01)">
  <path d="m605.31 416.29c6.18-14.33 10.36-29.38 14.35-44.43-0.13 1.78-0.27 3.57-0.62 5.34-8.02 34.13-22.22 66.86-42.07 95.78-18.25 27.71-41.68 51.95-68.41 71.56-30.7 22.48-66.9 38.09-104.92 42.06-14.2 1.16-28.47 2.62-42.72 1.23-37.43-2.26-74.51-12.85-106.94-31.8-35.33-20.55-64.22-51.37-83.94-87.04-6.85-12.46-13.74-25.02-18.45-38.48-4.58-16.25-9.43-32.79-9.36-49.81 1.38 12.69 3.66 25.28 7.39 37.5 1.26 5.44 2.99 10.76 5.34 15.83 13.3 29.24 29.93 57.41 52.61 80.4 22.07 22.86 49.22 40.7 78.85 52.13 42.04 16.33 88.6 20.87 132.98 12.75 30.66-5.78 59.65-18.96 85.18-36.76 29.01-20.53 54.31-46.44 73.71-76.25 10.64-15.71 19.75-32.48 27.02-50.01z" fill="#201d1d"/>
 </g>
 <g id="#8e9092ff" transform="translate(-46.266 -12.01)">
  <path d="m523.41 417.59c5.42-2.9 10.62-6.21 16.1-9 0 2.32-0.1 4.68-0.91 6.89-3.32 9.18-8.1 17.73-12.88 26.21-3.13 5.67-7.44 10.53-11.55 15.49-11.25 13.99-25.95 24.76-41.51 33.5-7.02 3.76-14.58 6.31-22.07 8.95-13.35 4.67-27.57 5.89-41.6 6.46-9.05-0.62-18.19-0.9-27.06-2.92-19.99-4.58-39.28-12.88-55.44-25.63-6.72-5.08-13.17-10.67-17.93-17.69 3.9-1.62 7.89-3.07 12.06-3.86 6.54 7.42 14.43 13.45 22.87 18.54 8.66 6.22 18.83 9.65 28.73 13.34 8.46 3.34 17.57 4.08 26.48 5.4 9.2 1.43 18.58 0.87 27.72-0.75 31.11-4.08 60.52-20.43 80.1-45.02 5.24-5.97 9.16-12.92 13.33-19.66 1.95-3.1 2.96-6.66 3.56-10.25z" fill="#8e9092"/>
 </g>
 <g id="#c4c5c7ff" transform="translate(-46.266 -12.01)">
  <path d="m383.46 422.52c21.56-8.11 44.51-12.56 67.55-12.82 2.03-0.03 4.12 0.22 5.81 1.47-5.47 6.27-12.57 10.85-19.81 14.82-15 7.2-32.87 7.95-48.58 2.57-2.92-0.98-5.49-2.7-8.11-4.25 1-0.68 2.04-1.28 3.14-1.79z" fill="#c4c5c7"/>
 </g>
 <g id="#b6b8baff" transform="translate(-46.266 -12.01)">
  <path d="m456.82 411.17 0.5-0.54c3.83 0.79 7.57 1.94 11.17 3.47-9.54 13.59-24.35 22.89-40.26 27.13-8.22 2.27-16.83 1.9-25.27 1.78-6.52-0.11-12.87-1.84-18.97-4.04-5.95-2.23-12.1-4.71-16.43-9.56 4.07-1.89 8.33-4.89 12.76-5.1 2.62 1.55 5.19 3.27 8.11 4.25 15.71 5.38 33.58 4.63 48.58-2.57 7.24-3.97 14.34-8.55 19.81-14.82z" fill="#b6b8ba"/>
 </g>
 <g id="#acaeb0ff" transform="translate(-46.266 -12.01)">
  <path d="m468.49 414.1c3.16 0.67 6.09 2.07 8.87 3.7-13.84 19.03-35.89 31.9-59.35 34.18-9.89 0.39-20.03 0.54-29.6-2.38-8.68-2.7-17.39-5.87-24.88-11.14-1.88-1.3-3.01-3.33-4.23-5.19 2.6-1.59 5.31-3.04 8.26-3.86 4.33 4.85 10.48 7.33 16.43 9.56 6.1 2.2 12.45 3.93 18.97 4.04 8.44 0.12 17.05 0.49 25.27-1.78 15.91-4.24 30.72-13.54 40.26-27.13z" fill="#acaeb0"/>
 </g>
 <g id="#a1a3a5ff" transform="translate(-46.266 -12.01)">
  <path d="m477.36 417.8c3.1 1.29 5.4 3.79 8.1 5.7 3.89 1.09 8.04 0.36 12.04 0.63-2.58 7.75-8.73 13.4-14.22 19.15-15.53 15.12-35.69 25.83-57.27 28.74-5.93 0.62-11.84 1.82-17.83 1.67-15.64-1.28-31.59-3.81-45.61-11.28-8.57-4.82-17.53-9.56-23.84-17.35 6.5-4.5 13.39-8.48 20.57-11.79 1.22 1.86 2.35 3.89 4.23 5.19 7.49 5.27 16.2 8.44 24.88 11.14 9.57 2.92 19.71 2.77 29.6 2.38 23.46-2.28 45.51-15.15 59.35-34.18z" fill="#a1a3a5"/>
 </g>
 <g id="#96989bff" transform="translate(-46.266 -12.01)">
  <path d="m509.85 421.83c4.61-1.11 9.03-2.86 13.56-4.24-0.6 3.59-1.61 7.15-3.56 10.25-4.17 6.74-8.09 13.69-13.33 19.66-19.58 24.59-48.99 40.94-80.1 45.02-9.14 1.62-18.52 2.18-27.72 0.75-8.91-1.32-18.02-2.06-26.48-5.4-9.9-3.69-20.07-7.12-28.73-13.34-8.44-5.09-16.33-11.12-22.87-18.54 6.66-2.61 12.07-7.28 18.11-10.93 6.31 7.79 15.27 12.53 23.84 17.35 14.02 7.47 29.97 10 45.61 11.28 5.99 0.15 11.9-1.05 17.83-1.67 21.58-2.91 41.74-13.62 57.27-28.74 5.49-5.75 11.64-11.4 14.22-19.15 4.08-1 8.28-1.28 12.35-2.3z" fill="#96989b"/>
 </g>
</svg>
