<?xml version="1.0" encoding="UTF-8"?>
<svg width="666.57pt" height="589.19pt" version="1.1" viewBox="0 0 666.56561 589.19397" xmlns="http://www.w3.org/2000/svg" xmlns:cc="http://creativecommons.org/ns#" xmlns:dc="http://purl.org/dc/elements/1.1/" xmlns:rdf="http://www.w3.org/1999/02/22-rdf-syntax-ns#">
 <metadata>
  <rdf:RDF>
   <cc:Work rdf:about="">
    <dc:format>image/svg+xml</dc:format>
    <dc:type rdf:resource="http://purl.org/dc/dcmitype/StillImage"/>
    <dc:title/>
   </cc:Work>
  </rdf:RDF>
 </metadata>
 <g id="#00529bff" transform="matrix(1.4426 0 0 1.4699 -1241.4 -16.201)">
  <path d="m860.51 11.33c16.82-0.6 33.66-0.11 50.49-0.27h243c6.5 0.04 13-0.11 19.51 0.13 0.12 21.45 0.16 42.9-0.02 64.35-14.67 0.6-29.59-1.49-44.01 2.08-20.97 3.79-41.33 11.14-59.63 22.1-12.25 6.64-24.34 13.93-34.3 23.8-18.83 16.2-36.42 34.24-49.66 55.39-4.74 7.69-9.88 15.25-13.03 23.77 0.02-0.85 0.05-1.7 0.09-2.54-1.08 5.63-5.21 10.34-4.83 16.28-0.73-0.43-1.47-0.86-2.19-1.27-0.22 3.01-0.81 5.98-2.13 8.71-1.7 3.43-1.44 7.31-1.87 11-0.3-1.99-0.59-3.99-0.91-5.97-0.51 4.98-1.76 9.87-1.78 14.91-0.46-0.61-0.92-1.22-1.36-1.82-0.58 5.68-1.67 11.29-1.53 17.02-2.37 17.29-1.25 35.19 4.48 51.75 2.37 5.27 4.52 10.66 7.14 15.83-1.95 0.48-3.92 0.92-5.93 0.89-29.34-0.01-58.69-0.01-88.04 0-4.5-0.06-9.11 0.45-13.45-1.03 0.01-105.04 0.09-210.08-0.04-315.11z" fill="#00529b"/>
 </g>
 <g id="#f37121ff" transform="matrix(1.4426 0 0 1.4699 -1241.4 -16.201)">
  <path d="m1140.5 116.73c14.51-3.84 29.64-2.16 44.47-2.46 9.53-0.35 18.77 2.23 27.96 4.42 25.48 6.95 49.14 20.84 67.27 40.09 7.45 7.12 13.77 15.31 19.1 24.12 15.86 24.54 23.6 53.94 23.23 83.07-0.78 19.4-4.69 38.82-12.59 56.61-6.86 16.4-17.28 31.05-29.33 44.03-21.11 21.44-48.56 36.78-78.18 42.45-8.75 1.5-17.54 3.16-26.47 2.7-21.64 0.81-43.44-3.43-63.27-12.11-7.84-3.19-15.48-6.96-22.4-11.87-11.07-7.56-21.52-16.2-30.12-26.52 6.95-2.89 14.55-1.34 21.83-2.05 16.73-1.88 32.89-7.28 48.07-14.44 18.45-8.61 35.48-20.37 49.78-34.89 5.61-5.25 10.27-11.41 15.88-16.67 0.75 3.3 0.82 6.7 0.36 10.05-0.78 5.35-0.39 10.8-1.27 16.14-0.85 5.84-1.96 11.66-2.25 17.58-0.17 8.28-2.88 16.34-2.2 24.68 13.45-2.21 27.09-1.96 40.63-3.11 2.37-0.17 4.93-0.16 7.04-1.46 1.39-2.07 1.48-4.65 1.54-7.06-0.1-28.68 0-57.36-0.06-86.04-0.14-6 1.01-11.95 0.85-17.95-0.07-15.47 0.01-30.94-0.05-46.41-16.55-0.19-33 2.14-49.45 3.67-4.08 0.45-8.23-0.23-12.26 0.67-3.89 0.93-7.97 0.09-11.85 1.11-6.71 0.97-13.59-0.15-20.28 1.15-4.15 0.59-8.41-0.2-12.51 0.77-3.42 0.81-6.95 0.17-10.37 0.79-7.33 1.5-14.92-0.03-22.25 1.46-4.12 0.52-8.33-0.21-12.39 0.83-4.41 0.98-9.17-0.43-13.41 1.39-2.19 1.43-1.96 4.45-2.1 6.75-0.08 12.48 0 24.97-0.04 37.45 4.04 1.58 8.16-0.27 12.17-1.05 6.13-1.56 12.54-1.65 18.67-3.26 4.07-1.12 8.34-0.78 12.46-1.63 5.49-0.43 10.77-2.39 16.32-2.35 4.84-0.55 9.72-0.97 14.48-2.11 0.4 1.24 0.72 2.5 0.95 3.79-8.26 21.36-21.95 41.1-41.06 54.08-10.8 7.36-23.24 12.16-36.09 14.32-6.58 0.22-13.21 0.48-19.77-0.1-5.69-1.76-11.59-3.8-16.06-7.88-5.46-5.88-9.2-13.31-10.45-21.24-2.34-15.9-2.64-32.15-0.41-48.07 4.52-30.67 18.95-59.73 40.62-81.9 20.32-20.8 46.79-35.53 75.26-41.54z" fill="#f37121"/>
 </g>
</svg>
