[
	"anonimo",
	"sdasa",
	"sadasdas4",
	"sdfsd",
	"gay",
	"rari",
	"ajshs",
	"aad",
	"ads",
	"aea",
	"ahh",
	"apellido",
	"asf",
	"asj",
	"bbb",
	"bfj",
	"bjk",
	"bvh",
	"ccc",
	"cds",
	"chc",
	"cju",
	"csd",
	"cvb",
	"cxz",
	"dadsa",
	"ddd",
	"dee",
	"demo",
	"dfg",
	"djf",
	"djj",
	"dnd",
	"drh",
	"dse",
	"dsf",
	"dss",
	"dsx",
	"dvc",
	"dxx",
	"dyy",
	"eee",
	"eeh",
	"ewf",
	"fff",
	"fgg",
	"fgt",
	"fhg",
	"fjg",
	"fjh",
	"fkj",
	"fnh",
	"frg",
	"gfl",
	"ggg",
	"ghb",
	"ghh",
	"ghk",
	"gjs",
	"gvk",
	"hah",
	"hch",
	"hdj",
	"hgd",
	"hgf",
	"hhf",
	"hhh",
	"hjk",
	"hjn",
	"hola",
	"ibf",
	"ihi",
	"iii",
	"iji",
	"ioj",
	"iph",
	"jaj",
	"jaja",
	"jhg",
	"jhj",
	"jhn",
	"jhr",
	"jhu",
	"jjj",
	"jjn",
	"jkl",
	"jlk",
	"jok",
	"kbe",
	"khv",
	"kjk",
	"kjn",
	"kjs",
	"kkj",
	"kkk",
	"klk",
	"knk",
	"lkh",
	"lkj",
	"llj",
	"lll",
	"lol",
	"luu",
	"mkk",
	"mmm",
	"mpm",
	"nalga",
	"nel",
	"njp",
	"nkj",
	"nnn",
	"nomb",
	"nul",
	"oif",
	"oio",
	"ooo",
	"ouo",
	"paa",
	"personal",
	"pito",
	"ppp",
	"qqq",
	"qwe",
	"rgt",
	"rrr",
	"rtr",
	"sda",
	"sdf",
	"sds",
	"sfj",
	"sss",
	"sws",
	"trial",
	"trr",
	"trt",
	"ttt",
	"uuu",
	"vee",
	"vvv",
	"wfe",
	"www",
	"xcv",
	"xde",
	"xxx",
	"xzz",
	"yrt",
	"yyy",
	"zxc",
	"zye",
	"zzz",
	"none",
	"asas",
	"fds",
	"jnk",
	"jll",
	"rrb",
	"perra",
	"puta",
	"culo",
	"culiada",
	"marica",
	"mamar",
	"puto",
	"pendejo",
	"ldk",
	"xoxo",
	"ramera",
	"hff",
	"verga",
	"maricon",
	"campell",
	"eqtynhxfdm",
	"qwrqwweq",
	"dfhjgjm",
	"eewer",
	"jklyg",
	"asrfggd",
	"hhsdfdgddh",
	"qwert",
	"kjhgf",
	"abcde12345",
	"12356hgtght",
	"qwde",
	"facebook",
	"haqed",
	"hormail",
	"homail",
	"gamil",
	"cdnqa",
	"hitmail",
	"einrot",
	"gmial",
	"gmil",
	"hotmial",
	"superrito",
	"drisd",
	"htomail",
	"hotmil",
	"hotmal",
	"gamail",
	"goeqa",
	"dayrep",
	"jotmail",
	"outlok",
	"armyspy",
	"fleckens",
	"gustr",
	"jourrapide",
	"rhyta",
	"teleworm",
	"kmhow",
	"zoho",
	"hptmail",
	"hoymail",
	"htmail",
	"hotnail",
	"yopmail",
	"my10minutemail",
	"yomail",
	"20email",
	"trbvn",
	"10minutemail",
	"swift10minutemail",
	"mailinator",
	"meltmail",
	"TempEMail",
	"filzmail",
	"sharklasers",
	"guerrillamail",
	"grr",
	"guerrillamailblock",
	"spam4",
	"novalido"
]