<?xml version="1.0" encoding="UTF-8" standalone="no"?>
<svg
   xmlns:dc="http://purl.org/dc/elements/1.1/"
   xmlns:cc="http://creativecommons.org/ns#"
   xmlns:rdf="http://www.w3.org/1999/02/22-rdf-syntax-ns#"
   xmlns:svg="http://www.w3.org/2000/svg"
   xmlns="http://www.w3.org/2000/svg"
   xmlns:sodipodi="http://sodipodi.sourceforge.net/DTD/sodipodi-0.dtd"
   xmlns:inkscape="http://www.inkscape.org/namespaces/inkscape"
   width="32"
   height="32"
   version="1.1"
   viewBox="0 0 25.6002 25.599997"
   id="svg2"
   inkscape:version="0.91 r13725"
   sodipodi:docname="laureate.svg">
  <defs
     id="defs13" />
  <sodipodi:namedview
     pagecolor="#ffffff"
     bordercolor="#666666"
     borderopacity="1"
     objecttolerance="10"
     gridtolerance="10"
     guidetolerance="10"
     inkscape:pageopacity="0"
     inkscape:pageshadow="2"
     inkscape:window-width="1389"
     inkscape:window-height="747"
     id="namedview11"
     showgrid="false"
     units="px"
     inkscape:zoom="5"
     inkscape:cx="50.320377"
     inkscape:cy="8.3312569"
     inkscape:window-x="0"
     inkscape:window-y="0"
     inkscape:window-maximized="0"
     inkscape:current-layer="svg2" />
  <metadata
     id="metadata4">
    <rdf:RDF>
      <cc:Work
         rdf:about="">
        <dc:format>image/svg+xml</dc:format>
        <dc:type
           rdf:resource="http://purl.org/dc/dcmitype/StillImage" />
        <dc:title></dc:title>
      </cc:Work>
    </rdf:RDF>
  </metadata>
  <g
     id="#d35e2dff"
     transform="matrix(0.05122806,0,0,0.05122806,0.32211436,-0.56691708)"
     style="fill:#d35e2d">
    <path
       d="m 452.01,12.83 c 4.1,-0.84 8.19,-1.74 12.39,-1.84 0.51,10.74 -0.61,21.41 -1.28,32.1 -8.1,85.75 -38.83,168.95 -86.66,240.46 -31.35,0.03 -62.71,0.23 -94.05,-0.1 0.18,-69.19 0,-138.38 0.09,-207.57 28.83,-17.14 59.41,-31.31 90.99,-42.57 25.54,-8.99 51.77,-16.18 78.52,-20.48 z"
       id="path7"
       inkscape:connector-curvature="0" />
    <path
       d="m 222.71,116.7 c 7.25,-5.48 14.25,-11.36 21.99,-16.13 0.13,68.47 0.02,136.95 0.06,205.43 0.07,5.17 -0.33,10.38 0.47,15.52 34.23,0.04 68.48,-0.17 102.71,0.1 -8.96,11.99 -19.27,22.93 -29.46,33.86 -59.56,62.47 -134.56,110.2 -216.6,137.11 -23.23,7.71 -47.06,13.67 -71.27,17.36 -2.88,0.58 -5.83,0.68 -8.77,0.77 -0.26,-17.95 1.6,-35.86 3.9,-53.65 C 40.79,350.21 90.32,248.76 164.4,170.4 c 18.06,-19.31 37.57,-37.28 58.31,-53.7 z"
       id="path9"
       inkscape:connector-curvature="0" />
  </g>
</svg>
